([('main.exe', 'D:\\progdata\\RBS3.0\\build\\main\\main.exe', 'EXECUTABLE'),
  ('python310.dll',
   'C:\\Users\\NickLempert\\AppData\\Local\\Programs\\Python\\Python310\\python310.dll',
   'BINARY'),
  ('VCRUNTIME140.dll',
   'C:\\Users\\NickLempert\\AppData\\Local\\Programs\\Python\\Python310\\VCRUNTIME140.dll',
   'BINARY'),
  ('SDL2_mixer.dll',
   'C:\\Users\\NickLempert\\AppData\\Local\\Programs\\Python\\Python310\\lib\\site-packages\\pygame\\SDL2_mixer.dll',
   'BINARY'),
  ('SDL2.dll',
   'C:\\Users\\NickLempert\\AppData\\Local\\Programs\\Python\\Python310\\lib\\site-packages\\pygame\\SDL2.dll',
   'BINARY'),
  ('SDL2_ttf.dll',
   'C:\\Users\\NickLempert\\AppData\\Local\\Programs\\Python\\Python310\\lib\\site-packages\\pygame\\SDL2_ttf.dll',
   'BINARY'),
  ('SDL2_image.dll',
   'C:\\Users\\NickLempert\\AppData\\Local\\Programs\\Python\\Python310\\lib\\site-packages\\pygame\\SDL2_image.dll',
   'BINARY'),
  ('pywintypes310.dll',
   'C:\\Users\\NickLempert\\AppData\\Local\\Programs\\Python\\Python310\\lib\\site-packages\\pywin32_system32\\pywintypes310.dll',
   'BINARY'),
  ('libopenblas.FB5AE2TYXYH2IJRDKGDGQ3XBKLKTF43H.gfortran-win_amd64.dll',
   'C:\\Users\\NickLempert\\AppData\\Local\\Programs\\Python\\Python310\\lib\\site-packages\\numpy\\.libs\\libopenblas.FB5AE2TYXYH2IJRDKGDGQ3XBKLKTF43H.gfortran-win_amd64.dll',
   'BINARY'),
  ('libmodplug-1.dll',
   'C:\\Users\\NickLempert\\AppData\\Local\\Programs\\Python\\Python310\\lib\\site-packages\\pygame\\libmodplug-1.dll',
   'BINARY'),
  ('libtiff-5.dll',
   'C:\\Users\\NickLempert\\AppData\\Local\\Programs\\Python\\Python310\\lib\\site-packages\\pygame\\libtiff-5.dll',
   'BINARY'),
  ('portmidi.dll',
   'C:\\Users\\NickLempert\\AppData\\Local\\Programs\\Python\\Python310\\lib\\site-packages\\pygame\\portmidi.dll',
   'BINARY'),
  ('libpng16-16.dll',
   'C:\\Users\\NickLempert\\AppData\\Local\\Programs\\Python\\Python310\\lib\\site-packages\\pygame\\libpng16-16.dll',
   'BINARY'),
  ('libvorbis-0.dll',
   'C:\\Users\\NickLempert\\AppData\\Local\\Programs\\Python\\Python310\\lib\\site-packages\\pygame\\libvorbis-0.dll',
   'BINARY'),
  ('libogg-0.dll',
   'C:\\Users\\NickLempert\\AppData\\Local\\Programs\\Python\\Python310\\lib\\site-packages\\pygame\\libogg-0.dll',
   'BINARY'),
  ('pythoncom310.dll',
   'C:\\Users\\NickLempert\\AppData\\Local\\Programs\\Python\\Python310\\lib\\site-packages\\pywin32_system32\\pythoncom310.dll',
   'BINARY'),
  ('libopus-0.dll',
   'C:\\Users\\NickLempert\\AppData\\Local\\Programs\\Python\\Python310\\lib\\site-packages\\pygame\\libopus-0.dll',
   'BINARY'),
  ('zlib1.dll',
   'C:\\Users\\NickLempert\\AppData\\Local\\Programs\\Python\\Python310\\lib\\site-packages\\pygame\\zlib1.dll',
   'BINARY'),
  ('libfreetype-6.dll',
   'C:\\Users\\NickLempert\\AppData\\Local\\Programs\\Python\\Python310\\lib\\site-packages\\pygame\\libfreetype-6.dll',
   'BINARY'),
  ('libvorbisfile-3.dll',
   'C:\\Users\\NickLempert\\AppData\\Local\\Programs\\Python\\Python310\\lib\\site-packages\\pygame\\libvorbisfile-3.dll',
   'BINARY'),
  ('libFLAC-8.dll',
   'C:\\Users\\NickLempert\\AppData\\Local\\Programs\\Python\\Python310\\lib\\site-packages\\pygame\\libFLAC-8.dll',
   'BINARY'),
  ('libjpeg-9.dll',
   'C:\\Users\\NickLempert\\AppData\\Local\\Programs\\Python\\Python310\\lib\\site-packages\\pygame\\libjpeg-9.dll',
   'BINARY'),
  ('libmpg123-0.dll',
   'C:\\Users\\NickLempert\\AppData\\Local\\Programs\\Python\\Python310\\lib\\site-packages\\pygame\\libmpg123-0.dll',
   'BINARY'),
  ('libwebp-7.dll',
   'C:\\Users\\NickLempert\\AppData\\Local\\Programs\\Python\\Python310\\lib\\site-packages\\pygame\\libwebp-7.dll',
   'BINARY'),
  ('libopusfile-0.dll',
   'C:\\Users\\NickLempert\\AppData\\Local\\Programs\\Python\\Python310\\lib\\site-packages\\pygame\\libopusfile-0.dll',
   'BINARY'),
  ('win32trace',
   'C:\\Users\\NickLempert\\AppData\\Local\\Programs\\Python\\Python310\\lib\\site-packages\\win32\\win32trace.pyd',
   'EXTENSION'),
  ('win32ui',
   'C:\\Users\\NickLempert\\AppData\\Local\\Programs\\Python\\Python310\\lib\\site-packages\\Pythonwin\\win32ui.pyd',
   'EXTENSION'),
  ('unicodedata',
   'C:\\Users\\NickLempert\\AppData\\Local\\Programs\\Python\\Python310\\DLLs\\unicodedata.pyd',
   'EXTENSION'),
  ('select',
   'C:\\Users\\NickLempert\\AppData\\Local\\Programs\\Python\\Python310\\DLLs\\select.pyd',
   'EXTENSION'),
  ('_socket',
   'C:\\Users\\NickLempert\\AppData\\Local\\Programs\\Python\\Python310\\DLLs\\_socket.pyd',
   'EXTENSION'),
  ('_lzma',
   'C:\\Users\\NickLempert\\AppData\\Local\\Programs\\Python\\Python310\\DLLs\\_lzma.pyd',
   'EXTENSION'),
  ('_bz2',
   'C:\\Users\\NickLempert\\AppData\\Local\\Programs\\Python\\Python310\\DLLs\\_bz2.pyd',
   'EXTENSION'),
  ('_overlapped',
   'C:\\Users\\NickLempert\\AppData\\Local\\Programs\\Python\\Python310\\DLLs\\_overlapped.pyd',
   'EXTENSION'),
  ('_ssl',
   'C:\\Users\\NickLempert\\AppData\\Local\\Programs\\Python\\Python310\\DLLs\\_ssl.pyd',
   'EXTENSION'),
  ('_asyncio',
   'C:\\Users\\NickLempert\\AppData\\Local\\Programs\\Python\\Python310\\DLLs\\_asyncio.pyd',
   'EXTENSION'),
  ('_queue',
   'C:\\Users\\NickLempert\\AppData\\Local\\Programs\\Python\\Python310\\DLLs\\_queue.pyd',
   'EXTENSION'),
  ('_ctypes',
   'C:\\Users\\NickLempert\\AppData\\Local\\Programs\\Python\\Python310\\DLLs\\_ctypes.pyd',
   'EXTENSION'),
  ('_hashlib',
   'C:\\Users\\NickLempert\\AppData\\Local\\Programs\\Python\\Python310\\DLLs\\_hashlib.pyd',
   'EXTENSION'),
  ('_multiprocessing',
   'C:\\Users\\NickLempert\\AppData\\Local\\Programs\\Python\\Python310\\DLLs\\_multiprocessing.pyd',
   'EXTENSION'),
  ('pyexpat',
   'C:\\Users\\NickLempert\\AppData\\Local\\Programs\\Python\\Python310\\DLLs\\pyexpat.pyd',
   'EXTENSION'),
  ('_decimal',
   'C:\\Users\\NickLempert\\AppData\\Local\\Programs\\Python\\Python310\\DLLs\\_decimal.pyd',
   'EXTENSION'),
  ('_win32sysloader',
   'C:\\Users\\NickLempert\\AppData\\Local\\Programs\\Python\\Python310\\lib\\site-packages\\win32\\_win32sysloader.pyd',
   'EXTENSION'),
  ('win32api',
   'C:\\Users\\NickLempert\\AppData\\Local\\Programs\\Python\\Python310\\lib\\site-packages\\win32\\win32api.pyd',
   'EXTENSION'),
  ('_uuid',
   'C:\\Users\\NickLempert\\AppData\\Local\\Programs\\Python\\Python310\\DLLs\\_uuid.pyd',
   'EXTENSION'),
  ('win32com.shell.shell',
   'C:\\Users\\NickLempert\\AppData\\Local\\Programs\\Python\\Python310\\lib\\site-packages\\win32comext\\shell\\shell.pyd',
   'EXTENSION'),
  ('numpy.core._multiarray_tests',
   'C:\\Users\\NickLempert\\AppData\\Local\\Programs\\Python\\Python310\\lib\\site-packages\\numpy\\core\\_multiarray_tests.cp310-win_amd64.pyd',
   'EXTENSION'),
  ('_elementtree',
   'C:\\Users\\NickLempert\\AppData\\Local\\Programs\\Python\\Python310\\DLLs\\_elementtree.pyd',
   'EXTENSION'),
  ('psutil._psutil_windows',
   'C:\\Users\\NickLempert\\AppData\\Local\\Programs\\Python\\Python310\\lib\\site-packages\\psutil\\_psutil_windows.cp310-win_amd64.pyd',
   'EXTENSION'),
  ('numpy.core._multiarray_umath',
   'C:\\Users\\NickLempert\\AppData\\Local\\Programs\\Python\\Python310\\lib\\site-packages\\numpy\\core\\_multiarray_umath.cp310-win_amd64.pyd',
   'EXTENSION'),
  ('win32pdh',
   'C:\\Users\\NickLempert\\AppData\\Local\\Programs\\Python\\Python310\\lib\\site-packages\\win32\\win32pdh.pyd',
   'EXTENSION'),
  ('numpy.linalg.lapack_lite',
   'C:\\Users\\NickLempert\\AppData\\Local\\Programs\\Python\\Python310\\lib\\site-packages\\numpy\\linalg\\lapack_lite.cp310-win_amd64.pyd',
   'EXTENSION'),
  ('numpy.random.mtrand',
   'C:\\Users\\NickLempert\\AppData\\Local\\Programs\\Python\\Python310\\lib\\site-packages\\numpy\\random\\mtrand.cp310-win_amd64.pyd',
   'EXTENSION'),
  ('numpy.random._sfc64',
   'C:\\Users\\NickLempert\\AppData\\Local\\Programs\\Python\\Python310\\lib\\site-packages\\numpy\\random\\_sfc64.cp310-win_amd64.pyd',
   'EXTENSION'),
  ('numpy.random._philox',
   'C:\\Users\\NickLempert\\AppData\\Local\\Programs\\Python\\Python310\\lib\\site-packages\\numpy\\random\\_philox.cp310-win_amd64.pyd',
   'EXTENSION'),
  ('numpy.random._pcg64',
   'C:\\Users\\NickLempert\\AppData\\Local\\Programs\\Python\\Python310\\lib\\site-packages\\numpy\\random\\_pcg64.cp310-win_amd64.pyd',
   'EXTENSION'),
  ('numpy.random._mt19937',
   'C:\\Users\\NickLempert\\AppData\\Local\\Programs\\Python\\Python310\\lib\\site-packages\\numpy\\random\\_mt19937.cp310-win_amd64.pyd',
   'EXTENSION'),
  ('numpy.random.bit_generator',
   'C:\\Users\\NickLempert\\AppData\\Local\\Programs\\Python\\Python310\\lib\\site-packages\\numpy\\random\\bit_generator.cp310-win_amd64.pyd',
   'EXTENSION'),
  ('numpy.random._generator',
   'C:\\Users\\NickLempert\\AppData\\Local\\Programs\\Python\\Python310\\lib\\site-packages\\numpy\\random\\_generator.cp310-win_amd64.pyd',
   'EXTENSION'),
  ('numpy.random._bounded_integers',
   'C:\\Users\\NickLempert\\AppData\\Local\\Programs\\Python\\Python310\\lib\\site-packages\\numpy\\random\\_bounded_integers.cp310-win_amd64.pyd',
   'EXTENSION'),
  ('numpy.random._common',
   'C:\\Users\\NickLempert\\AppData\\Local\\Programs\\Python\\Python310\\lib\\site-packages\\numpy\\random\\_common.cp310-win_amd64.pyd',
   'EXTENSION'),
  ('numpy.fft._pocketfft_internal',
   'C:\\Users\\NickLempert\\AppData\\Local\\Programs\\Python\\Python310\\lib\\site-packages\\numpy\\fft\\_pocketfft_internal.cp310-win_amd64.pyd',
   'EXTENSION'),
  ('numpy.linalg._umath_linalg',
   'C:\\Users\\NickLempert\\AppData\\Local\\Programs\\Python\\Python310\\lib\\site-packages\\numpy\\linalg\\_umath_linalg.cp310-win_amd64.pyd',
   'EXTENSION'),
  ('pygame.imageext',
   'C:\\Users\\NickLempert\\AppData\\Local\\Programs\\Python\\Python310\\lib\\site-packages\\pygame\\imageext.cp310-win_amd64.pyd',
   'EXTENSION'),
  ('pygame.scrap',
   'C:\\Users\\NickLempert\\AppData\\Local\\Programs\\Python\\Python310\\lib\\site-packages\\pygame\\scrap.cp310-win_amd64.pyd',
   'EXTENSION'),
  ('pygame.mixer',
   'C:\\Users\\NickLempert\\AppData\\Local\\Programs\\Python\\Python310\\lib\\site-packages\\pygame\\mixer.cp310-win_amd64.pyd',
   'EXTENSION'),
  ('pygame.mixer_music',
   'C:\\Users\\NickLempert\\AppData\\Local\\Programs\\Python\\Python310\\lib\\site-packages\\pygame\\mixer_music.cp310-win_amd64.pyd',
   'EXTENSION'),
  ('pygame.font',
   'C:\\Users\\NickLempert\\AppData\\Local\\Programs\\Python\\Python310\\lib\\site-packages\\pygame\\font.cp310-win_amd64.pyd',
   'EXTENSION'),
  ('pygame._freetype',
   'C:\\Users\\NickLempert\\AppData\\Local\\Programs\\Python\\Python310\\lib\\site-packages\\pygame\\_freetype.cp310-win_amd64.pyd',
   'EXTENSION'),
  ('pygame.transform',
   'C:\\Users\\NickLempert\\AppData\\Local\\Programs\\Python\\Python310\\lib\\site-packages\\pygame\\transform.cp310-win_amd64.pyd',
   'EXTENSION'),
  ('pygame.time',
   'C:\\Users\\NickLempert\\AppData\\Local\\Programs\\Python\\Python310\\lib\\site-packages\\pygame\\time.cp310-win_amd64.pyd',
   'EXTENSION'),
  ('pygame.pixelarray',
   'C:\\Users\\NickLempert\\AppData\\Local\\Programs\\Python\\Python310\\lib\\site-packages\\pygame\\pixelarray.cp310-win_amd64.pyd',
   'EXTENSION'),
  ('pygame.mask',
   'C:\\Users\\NickLempert\\AppData\\Local\\Programs\\Python\\Python310\\lib\\site-packages\\pygame\\mask.cp310-win_amd64.pyd',
   'EXTENSION'),
  ('pygame.surface',
   'C:\\Users\\NickLempert\\AppData\\Local\\Programs\\Python\\Python310\\lib\\site-packages\\pygame\\surface.cp310-win_amd64.pyd',
   'EXTENSION'),
  ('pygame.pixelcopy',
   'C:\\Users\\NickLempert\\AppData\\Local\\Programs\\Python\\Python310\\lib\\site-packages\\pygame\\pixelcopy.cp310-win_amd64.pyd',
   'EXTENSION'),
  ('pygame.mouse',
   'C:\\Users\\NickLempert\\AppData\\Local\\Programs\\Python\\Python310\\lib\\site-packages\\pygame\\mouse.cp310-win_amd64.pyd',
   'EXTENSION'),
  ('pygame.key',
   'C:\\Users\\NickLempert\\AppData\\Local\\Programs\\Python\\Python310\\lib\\site-packages\\pygame\\key.cp310-win_amd64.pyd',
   'EXTENSION'),
  ('pygame.joystick',
   'C:\\Users\\NickLempert\\AppData\\Local\\Programs\\Python\\Python310\\lib\\site-packages\\pygame\\joystick.cp310-win_amd64.pyd',
   'EXTENSION'),
  ('pygame.image',
   'C:\\Users\\NickLempert\\AppData\\Local\\Programs\\Python\\Python310\\lib\\site-packages\\pygame\\image.cp310-win_amd64.pyd',
   'EXTENSION'),
  ('pygame.event',
   'C:\\Users\\NickLempert\\AppData\\Local\\Programs\\Python\\Python310\\lib\\site-packages\\pygame\\event.cp310-win_amd64.pyd',
   'EXTENSION'),
  ('pygame.draw',
   'C:\\Users\\NickLempert\\AppData\\Local\\Programs\\Python\\Python310\\lib\\site-packages\\pygame\\draw.cp310-win_amd64.pyd',
   'EXTENSION'),
  ('pygame.display',
   'C:\\Users\\NickLempert\\AppData\\Local\\Programs\\Python\\Python310\\lib\\site-packages\\pygame\\display.cp310-win_amd64.pyd',
   'EXTENSION'),
  ('pygame.math',
   'C:\\Users\\NickLempert\\AppData\\Local\\Programs\\Python\\Python310\\lib\\site-packages\\pygame\\math.cp310-win_amd64.pyd',
   'EXTENSION'),
  ('pygame.bufferproxy',
   'C:\\Users\\NickLempert\\AppData\\Local\\Programs\\Python\\Python310\\lib\\site-packages\\pygame\\bufferproxy.cp310-win_amd64.pyd',
   'EXTENSION'),
  ('pygame.color',
   'C:\\Users\\NickLempert\\AppData\\Local\\Programs\\Python\\Python310\\lib\\site-packages\\pygame\\color.cp310-win_amd64.pyd',
   'EXTENSION'),
  ('pygame.surflock',
   'C:\\Users\\NickLempert\\AppData\\Local\\Programs\\Python\\Python310\\lib\\site-packages\\pygame\\surflock.cp310-win_amd64.pyd',
   'EXTENSION'),
  ('pygame.rwobject',
   'C:\\Users\\NickLempert\\AppData\\Local\\Programs\\Python\\Python310\\lib\\site-packages\\pygame\\rwobject.cp310-win_amd64.pyd',
   'EXTENSION'),
  ('pygame.rect',
   'C:\\Users\\NickLempert\\AppData\\Local\\Programs\\Python\\Python310\\lib\\site-packages\\pygame\\rect.cp310-win_amd64.pyd',
   'EXTENSION'),
  ('pygame.constants',
   'C:\\Users\\NickLempert\\AppData\\Local\\Programs\\Python\\Python310\\lib\\site-packages\\pygame\\constants.cp310-win_amd64.pyd',
   'EXTENSION'),
  ('pygame.base',
   'C:\\Users\\NickLempert\\AppData\\Local\\Programs\\Python\\Python310\\lib\\site-packages\\pygame\\base.cp310-win_amd64.pyd',
   'EXTENSION'),
  ('mfc140u.dll',
   'C:\\Users\\NickLempert\\AppData\\Local\\Programs\\Python\\Python310\\lib\\site-packages\\Pythonwin\\mfc140u.dll',
   'BINARY'),
  ('libcrypto-1_1.dll',
   'C:\\Users\\NickLempert\\AppData\\Local\\Programs\\Python\\Python310\\DLLs\\libcrypto-1_1.dll',
   'BINARY'),
  ('libssl-1_1.dll',
   'C:\\Users\\NickLempert\\AppData\\Local\\Programs\\Python\\Python310\\DLLs\\libssl-1_1.dll',
   'BINARY'),
  ('libffi-7.dll',
   'C:\\Users\\NickLempert\\AppData\\Local\\Programs\\Python\\Python310\\DLLs\\libffi-7.dll',
   'BINARY'),
  ('base_library.zip',
   'D:\\progdata\\RBS3.0\\build\\main\\base_library.zip',
   'DATA'),
  ('pygame\\freesansbold.ttf',
   'C:\\Users\\NickLempert\\AppData\\Local\\Programs\\Python\\Python310\\lib\\site-packages\\pygame\\freesansbold.ttf',
   'DATA'),
  ('pygame\\pygame_icon.bmp',
   'C:\\Users\\NickLempert\\AppData\\Local\\Programs\\Python\\Python310\\lib\\site-packages\\pygame\\pygame_icon.bmp',
   'DATA'),
  ('pyinstaller-4.7.dist-info\\COPYING.txt',
   'c:\\users\\nicklempert\\appdata\\local\\programs\\python\\python310\\lib\\site-packages\\pyinstaller-4.7.dist-info\\COPYING.txt',
   'DATA'),
  ('altgraph-0.17.2.dist-info\\RECORD',
   'c:\\users\\nicklempert\\appdata\\local\\programs\\python\\python310\\lib\\site-packages\\altgraph-0.17.2.dist-info\\RECORD',
   'DATA'),
  ('setuptools-57.4.0.dist-info\\METADATA',
   'c:\\users\\nicklempert\\appdata\\local\\programs\\python\\python310\\lib\\site-packages\\setuptools-57.4.0.dist-info\\METADATA',
   'DATA'),
  ('altgraph-0.17.2.dist-info\\METADATA',
   'c:\\users\\nicklempert\\appdata\\local\\programs\\python\\python310\\lib\\site-packages\\altgraph-0.17.2.dist-info\\METADATA',
   'DATA'),
  ('pyinstaller-4.7.dist-info\\METADATA',
   'c:\\users\\nicklempert\\appdata\\local\\programs\\python\\python310\\lib\\site-packages\\pyinstaller-4.7.dist-info\\METADATA',
   'DATA'),
  ('setuptools-57.4.0.dist-info\\LICENSE',
   'c:\\users\\nicklempert\\appdata\\local\\programs\\python\\python310\\lib\\site-packages\\setuptools-57.4.0.dist-info\\LICENSE',
   'DATA'),
  ('altgraph-0.17.2.dist-info\\zip-safe',
   'c:\\users\\nicklempert\\appdata\\local\\programs\\python\\python310\\lib\\site-packages\\altgraph-0.17.2.dist-info\\zip-safe',
   'DATA'),
  ('setuptools-57.4.0.dist-info\\INSTALLER',
   'c:\\users\\nicklempert\\appdata\\local\\programs\\python\\python310\\lib\\site-packages\\setuptools-57.4.0.dist-info\\INSTALLER',
   'DATA'),
  ('pyinstaller-4.7.dist-info\\REQUESTED',
   'c:\\users\\nicklempert\\appdata\\local\\programs\\python\\python310\\lib\\site-packages\\pyinstaller-4.7.dist-info\\REQUESTED',
   'DATA'),
  ('pyinstaller-4.7.dist-info\\entry_points.txt',
   'c:\\users\\nicklempert\\appdata\\local\\programs\\python\\python310\\lib\\site-packages\\pyinstaller-4.7.dist-info\\entry_points.txt',
   'DATA'),
  ('setuptools-57.4.0.dist-info\\entry_points.txt',
   'c:\\users\\nicklempert\\appdata\\local\\programs\\python\\python310\\lib\\site-packages\\setuptools-57.4.0.dist-info\\entry_points.txt',
   'DATA'),
  ('setuptools-57.4.0.dist-info\\top_level.txt',
   'c:\\users\\nicklempert\\appdata\\local\\programs\\python\\python310\\lib\\site-packages\\setuptools-57.4.0.dist-info\\top_level.txt',
   'DATA'),
  ('altgraph-0.17.2.dist-info\\INSTALLER',
   'c:\\users\\nicklempert\\appdata\\local\\programs\\python\\python310\\lib\\site-packages\\altgraph-0.17.2.dist-info\\INSTALLER',
   'DATA'),
  ('setuptools-57.4.0.dist-info\\WHEEL',
   'c:\\users\\nicklempert\\appdata\\local\\programs\\python\\python310\\lib\\site-packages\\setuptools-57.4.0.dist-info\\WHEEL',
   'DATA'),
  ('setuptools-57.4.0.dist-info\\RECORD',
   'c:\\users\\nicklempert\\appdata\\local\\programs\\python\\python310\\lib\\site-packages\\setuptools-57.4.0.dist-info\\RECORD',
   'DATA'),
  ('pyinstaller-4.7.dist-info\\INSTALLER',
   'c:\\users\\nicklempert\\appdata\\local\\programs\\python\\python310\\lib\\site-packages\\pyinstaller-4.7.dist-info\\INSTALLER',
   'DATA'),
  ('altgraph-0.17.2.dist-info\\WHEEL',
   'c:\\users\\nicklempert\\appdata\\local\\programs\\python\\python310\\lib\\site-packages\\altgraph-0.17.2.dist-info\\WHEEL',
   'DATA'),
  ('altgraph-0.17.2.dist-info\\LICENSE',
   'c:\\users\\nicklempert\\appdata\\local\\programs\\python\\python310\\lib\\site-packages\\altgraph-0.17.2.dist-info\\LICENSE',
   'DATA'),
  ('pyinstaller-4.7.dist-info\\top_level.txt',
   'c:\\users\\nicklempert\\appdata\\local\\programs\\python\\python310\\lib\\site-packages\\pyinstaller-4.7.dist-info\\top_level.txt',
   'DATA'),
  ('setuptools-57.4.0.dist-info\\REQUESTED',
   'c:\\users\\nicklempert\\appdata\\local\\programs\\python\\python310\\lib\\site-packages\\setuptools-57.4.0.dist-info\\REQUESTED',
   'DATA'),
  ('pyinstaller-4.7.dist-info\\WHEEL',
   'c:\\users\\nicklempert\\appdata\\local\\programs\\python\\python310\\lib\\site-packages\\pyinstaller-4.7.dist-info\\WHEEL',
   'DATA'),
  ('pyinstaller-4.7.dist-info\\RECORD',
   'c:\\users\\nicklempert\\appdata\\local\\programs\\python\\python310\\lib\\site-packages\\pyinstaller-4.7.dist-info\\RECORD',
   'DATA'),
  ('altgraph-0.17.2.dist-info\\top_level.txt',
   'c:\\users\\nicklempert\\appdata\\local\\programs\\python\\python310\\lib\\site-packages\\altgraph-0.17.2.dist-info\\top_level.txt',
   'DATA')],)
