('D:\\progdata\\RBS3.0\\build\\main\\PYZ-00.pyz',
 [('win32com',
   'C:\\Users\\NickLempert\\AppData\\Local\\Programs\\Python\\Python310\\lib\\site-packages\\win32com\\__init__.py',
   'PYMODULE'),
  ('win32com.server.util',
   'C:\\Users\\NickLempert\\AppData\\Local\\Programs\\Python\\Python310\\lib\\site-packages\\win32com\\server\\util.py',
   'PYMODULE'),
  ('win32com.server.dispatcher',
   'C:\\Users\\NickLempert\\AppData\\Local\\Programs\\Python\\Python310\\lib\\site-packages\\win32com\\server\\dispatcher.py',
   'PYMODULE'),
  ('win32traceutil',
   'C:\\Users\\NickLempert\\AppData\\Local\\Programs\\Python\\Python310\\lib\\site-packages\\win32\\lib\\win32traceutil.py',
   'PYMODULE'),
  ('win32com.util',
   'C:\\Users\\NickLempert\\AppData\\Local\\Programs\\Python\\Python310\\lib\\site-packages\\win32com\\util.py',
   'PYMODULE'),
  ('win32con',
   'C:\\Users\\NickLempert\\AppData\\Local\\Programs\\Python\\Python310\\lib\\site-packages\\win32\\lib\\win32con.py',
   'PYMODULE'),
  ('win32com.server.exception',
   'C:\\Users\\NickLempert\\AppData\\Local\\Programs\\Python\\Python310\\lib\\site-packages\\win32com\\server\\exception.py',
   'PYMODULE'),
  ('winerror',
   'C:\\Users\\NickLempert\\AppData\\Local\\Programs\\Python\\Python310\\lib\\site-packages\\win32\\lib\\winerror.py',
   'PYMODULE'),
  ('win32com.server.policy',
   'C:\\Users\\NickLempert\\AppData\\Local\\Programs\\Python\\Python310\\lib\\site-packages\\win32com\\server\\policy.py',
   'PYMODULE'),
  ('win32com.client',
   'C:\\Users\\NickLempert\\AppData\\Local\\Programs\\Python\\Python310\\lib\\site-packages\\win32com\\client\\__init__.py',
   'PYMODULE'),
  ('win32com.client.makepy',
   'C:\\Users\\NickLempert\\AppData\\Local\\Programs\\Python\\Python310\\lib\\site-packages\\win32com\\client\\makepy.py',
   'PYMODULE'),
  ('getopt',
   'C:\\Users\\NickLempert\\AppData\\Local\\Programs\\Python\\Python310\\lib\\getopt.py',
   'PYMODULE'),
  ('gettext',
   'C:\\Users\\NickLempert\\AppData\\Local\\Programs\\Python\\Python310\\lib\\gettext.py',
   'PYMODULE'),
  ('copy',
   'C:\\Users\\NickLempert\\AppData\\Local\\Programs\\Python\\Python310\\lib\\copy.py',
   'PYMODULE'),
  ('struct',
   'C:\\Users\\NickLempert\\AppData\\Local\\Programs\\Python\\Python310\\lib\\struct.py',
   'PYMODULE'),
  ('pywin.dialogs.status',
   'C:\\Users\\NickLempert\\AppData\\Local\\Programs\\Python\\Python310\\lib\\site-packages\\Pythonwin\\pywin\\dialogs\\status.py',
   'PYMODULE'),
  ('threading',
   'C:\\Users\\NickLempert\\AppData\\Local\\Programs\\Python\\Python310\\lib\\threading.py',
   'PYMODULE'),
  ('_threading_local',
   'C:\\Users\\NickLempert\\AppData\\Local\\Programs\\Python\\Python310\\lib\\_threading_local.py',
   'PYMODULE'),
  ('contextlib',
   'C:\\Users\\NickLempert\\AppData\\Local\\Programs\\Python\\Python310\\lib\\contextlib.py',
   'PYMODULE'),
  ('pywin.mfc.thread',
   'C:\\Users\\NickLempert\\AppData\\Local\\Programs\\Python\\Python310\\lib\\site-packages\\Pythonwin\\pywin\\mfc\\thread.py',
   'PYMODULE'),
  ('pywin.mfc.object',
   'C:\\Users\\NickLempert\\AppData\\Local\\Programs\\Python\\Python310\\lib\\site-packages\\Pythonwin\\pywin\\mfc\\object.py',
   'PYMODULE'),
  ('pywin.mfc.dialog',
   'C:\\Users\\NickLempert\\AppData\\Local\\Programs\\Python\\Python310\\lib\\site-packages\\Pythonwin\\pywin\\mfc\\dialog.py',
   'PYMODULE'),
  ('pywin.mfc.window',
   'C:\\Users\\NickLempert\\AppData\\Local\\Programs\\Python\\Python310\\lib\\site-packages\\Pythonwin\\pywin\\mfc\\window.py',
   'PYMODULE'),
  ('pywin.mfc',
   'C:\\Users\\NickLempert\\AppData\\Local\\Programs\\Python\\Python310\\lib\\site-packages\\Pythonwin\\pywin\\mfc\\__init__.py',
   'PYMODULE'),
  ('pywin.dialogs',
   'C:\\Users\\NickLempert\\AppData\\Local\\Programs\\Python\\Python310\\lib\\site-packages\\Pythonwin\\pywin\\dialogs\\__init__.py',
   'PYMODULE'),
  ('pywin',
   'C:\\Users\\NickLempert\\AppData\\Local\\Programs\\Python\\Python310\\lib\\site-packages\\Pythonwin\\pywin\\__init__.py',
   'PYMODULE'),
  ('importlib',
   'C:\\Users\\NickLempert\\AppData\\Local\\Programs\\Python\\Python310\\lib\\importlib\\__init__.py',
   'PYMODULE'),
  ('importlib.abc',
   'C:\\Users\\NickLempert\\AppData\\Local\\Programs\\Python\\Python310\\lib\\importlib\\abc.py',
   'PYMODULE'),
  ('typing',
   'C:\\Users\\NickLempert\\AppData\\Local\\Programs\\Python\\Python310\\lib\\typing.py',
   'PYMODULE'),
  ('importlib._abc',
   'C:\\Users\\NickLempert\\AppData\\Local\\Programs\\Python\\Python310\\lib\\importlib\\_abc.py',
   'PYMODULE'),
  ('importlib.machinery',
   'C:\\Users\\NickLempert\\AppData\\Local\\Programs\\Python\\Python310\\lib\\importlib\\machinery.py',
   'PYMODULE'),
  ('importlib._bootstrap_external',
   'C:\\Users\\NickLempert\\AppData\\Local\\Programs\\Python\\Python310\\lib\\importlib\\_bootstrap_external.py',
   'PYMODULE'),
  ('importlib.metadata',
   'C:\\Users\\NickLempert\\AppData\\Local\\Programs\\Python\\Python310\\lib\\importlib\\metadata\\__init__.py',
   'PYMODULE'),
  ('importlib.metadata._itertools',
   'C:\\Users\\NickLempert\\AppData\\Local\\Programs\\Python\\Python310\\lib\\importlib\\metadata\\_itertools.py',
   'PYMODULE'),
  ('importlib.metadata._functools',
   'C:\\Users\\NickLempert\\AppData\\Local\\Programs\\Python\\Python310\\lib\\importlib\\metadata\\_functools.py',
   'PYMODULE'),
  ('importlib.metadata._collections',
   'C:\\Users\\NickLempert\\AppData\\Local\\Programs\\Python\\Python310\\lib\\importlib\\metadata\\_collections.py',
   'PYMODULE'),
  ('importlib.metadata._meta',
   'C:\\Users\\NickLempert\\AppData\\Local\\Programs\\Python\\Python310\\lib\\importlib\\metadata\\_meta.py',
   'PYMODULE'),
  ('importlib.metadata._adapters',
   'C:\\Users\\NickLempert\\AppData\\Local\\Programs\\Python\\Python310\\lib\\importlib\\metadata\\_adapters.py',
   'PYMODULE'),
  ('importlib.metadata._text',
   'C:\\Users\\NickLempert\\AppData\\Local\\Programs\\Python\\Python310\\lib\\importlib\\metadata\\_text.py',
   'PYMODULE'),
  ('email.message',
   'C:\\Users\\NickLempert\\AppData\\Local\\Programs\\Python\\Python310\\lib\\email\\message.py',
   'PYMODULE'),
  ('email.policy',
   'C:\\Users\\NickLempert\\AppData\\Local\\Programs\\Python\\Python310\\lib\\email\\policy.py',
   'PYMODULE'),
  ('email.contentmanager',
   'C:\\Users\\NickLempert\\AppData\\Local\\Programs\\Python\\Python310\\lib\\email\\contentmanager.py',
   'PYMODULE'),
  ('email.quoprimime',
   'C:\\Users\\NickLempert\\AppData\\Local\\Programs\\Python\\Python310\\lib\\email\\quoprimime.py',
   'PYMODULE'),
  ('string',
   'C:\\Users\\NickLempert\\AppData\\Local\\Programs\\Python\\Python310\\lib\\string.py',
   'PYMODULE'),
  ('email.headerregistry',
   'C:\\Users\\NickLempert\\AppData\\Local\\Programs\\Python\\Python310\\lib\\email\\headerregistry.py',
   'PYMODULE'),
  ('email._header_value_parser',
   'C:\\Users\\NickLempert\\AppData\\Local\\Programs\\Python\\Python310\\lib\\email\\_header_value_parser.py',
   'PYMODULE'),
  ('urllib',
   'C:\\Users\\NickLempert\\AppData\\Local\\Programs\\Python\\Python310\\lib\\urllib\\__init__.py',
   'PYMODULE'),
  ('email.iterators',
   'C:\\Users\\NickLempert\\AppData\\Local\\Programs\\Python\\Python310\\lib\\email\\iterators.py',
   'PYMODULE'),
  ('email.generator',
   'C:\\Users\\NickLempert\\AppData\\Local\\Programs\\Python\\Python310\\lib\\email\\generator.py',
   'PYMODULE'),
  ('email._encoded_words',
   'C:\\Users\\NickLempert\\AppData\\Local\\Programs\\Python\\Python310\\lib\\email\\_encoded_words.py',
   'PYMODULE'),
  ('base64',
   'C:\\Users\\NickLempert\\AppData\\Local\\Programs\\Python\\Python310\\lib\\base64.py',
   'PYMODULE'),
  ('email.charset',
   'C:\\Users\\NickLempert\\AppData\\Local\\Programs\\Python\\Python310\\lib\\email\\charset.py',
   'PYMODULE'),
  ('email.encoders',
   'C:\\Users\\NickLempert\\AppData\\Local\\Programs\\Python\\Python310\\lib\\email\\encoders.py',
   'PYMODULE'),
  ('email.base64mime',
   'C:\\Users\\NickLempert\\AppData\\Local\\Programs\\Python\\Python310\\lib\\email\\base64mime.py',
   'PYMODULE'),
  ('email._policybase',
   'C:\\Users\\NickLempert\\AppData\\Local\\Programs\\Python\\Python310\\lib\\email\\_policybase.py',
   'PYMODULE'),
  ('email.header',
   'C:\\Users\\NickLempert\\AppData\\Local\\Programs\\Python\\Python310\\lib\\email\\header.py',
   'PYMODULE'),
  ('email.errors',
   'C:\\Users\\NickLempert\\AppData\\Local\\Programs\\Python\\Python310\\lib\\email\\errors.py',
   'PYMODULE'),
  ('email.utils',
   'C:\\Users\\NickLempert\\AppData\\Local\\Programs\\Python\\Python310\\lib\\email\\utils.py',
   'PYMODULE'),
  ('email._parseaddr',
   'C:\\Users\\NickLempert\\AppData\\Local\\Programs\\Python\\Python310\\lib\\email\\_parseaddr.py',
   'PYMODULE'),
  ('calendar',
   'C:\\Users\\NickLempert\\AppData\\Local\\Programs\\Python\\Python310\\lib\\calendar.py',
   'PYMODULE'),
  ('argparse',
   'C:\\Users\\NickLempert\\AppData\\Local\\Programs\\Python\\Python310\\lib\\argparse.py',
   'PYMODULE'),
  ('urllib.parse',
   'C:\\Users\\NickLempert\\AppData\\Local\\Programs\\Python\\Python310\\lib\\urllib\\parse.py',
   'PYMODULE'),
  ('datetime',
   'C:\\Users\\NickLempert\\AppData\\Local\\Programs\\Python\\Python310\\lib\\datetime.py',
   'PYMODULE'),
  ('_strptime',
   'C:\\Users\\NickLempert\\AppData\\Local\\Programs\\Python\\Python310\\lib\\_strptime.py',
   'PYMODULE'),
  ('socket',
   'C:\\Users\\NickLempert\\AppData\\Local\\Programs\\Python\\Python310\\lib\\socket.py',
   'PYMODULE'),
  ('selectors',
   'C:\\Users\\NickLempert\\AppData\\Local\\Programs\\Python\\Python310\\lib\\selectors.py',
   'PYMODULE'),
  ('quopri',
   'C:\\Users\\NickLempert\\AppData\\Local\\Programs\\Python\\Python310\\lib\\quopri.py',
   'PYMODULE'),
  ('uu',
   'C:\\Users\\NickLempert\\AppData\\Local\\Programs\\Python\\Python310\\lib\\uu.py',
   'PYMODULE'),
  ('optparse',
   'C:\\Users\\NickLempert\\AppData\\Local\\Programs\\Python\\Python310\\lib\\optparse.py',
   'PYMODULE'),
  ('posixpath',
   'C:\\Users\\NickLempert\\AppData\\Local\\Programs\\Python\\Python310\\lib\\posixpath.py',
   'PYMODULE'),
  ('genericpath',
   'C:\\Users\\NickLempert\\AppData\\Local\\Programs\\Python\\Python310\\lib\\genericpath.py',
   'PYMODULE'),
  ('stat',
   'C:\\Users\\NickLempert\\AppData\\Local\\Programs\\Python\\Python310\\lib\\stat.py',
   'PYMODULE'),
  ('textwrap',
   'C:\\Users\\NickLempert\\AppData\\Local\\Programs\\Python\\Python310\\lib\\textwrap.py',
   'PYMODULE'),
  ('zipfile',
   'C:\\Users\\NickLempert\\AppData\\Local\\Programs\\Python\\Python310\\lib\\zipfile.py',
   'PYMODULE'),
  ('py_compile',
   'C:\\Users\\NickLempert\\AppData\\Local\\Programs\\Python\\Python310\\lib\\py_compile.py',
   'PYMODULE'),
  ('ntpath',
   'C:\\Users\\NickLempert\\AppData\\Local\\Programs\\Python\\Python310\\lib\\ntpath.py',
   'PYMODULE'),
  ('lzma',
   'C:\\Users\\NickLempert\\AppData\\Local\\Programs\\Python\\Python310\\lib\\lzma.py',
   'PYMODULE'),
  ('_compression',
   'C:\\Users\\NickLempert\\AppData\\Local\\Programs\\Python\\Python310\\lib\\_compression.py',
   'PYMODULE'),
  ('bz2',
   'C:\\Users\\NickLempert\\AppData\\Local\\Programs\\Python\\Python310\\lib\\bz2.py',
   'PYMODULE'),
  ('importlib.util',
   'C:\\Users\\NickLempert\\AppData\\Local\\Programs\\Python\\Python310\\lib\\importlib\\util.py',
   'PYMODULE'),
  ('pathlib',
   'C:\\Users\\NickLempert\\AppData\\Local\\Programs\\Python\\Python310\\lib\\pathlib.py',
   'PYMODULE'),
  ('fnmatch',
   'C:\\Users\\NickLempert\\AppData\\Local\\Programs\\Python\\Python310\\lib\\fnmatch.py',
   'PYMODULE'),
  ('email',
   'C:\\Users\\NickLempert\\AppData\\Local\\Programs\\Python\\Python310\\lib\\email\\__init__.py',
   'PYMODULE'),
  ('email.parser',
   'C:\\Users\\NickLempert\\AppData\\Local\\Programs\\Python\\Python310\\lib\\email\\parser.py',
   'PYMODULE'),
  ('email.feedparser',
   'C:\\Users\\NickLempert\\AppData\\Local\\Programs\\Python\\Python310\\lib\\email\\feedparser.py',
   'PYMODULE'),
  ('csv',
   'C:\\Users\\NickLempert\\AppData\\Local\\Programs\\Python\\Python310\\lib\\csv.py',
   'PYMODULE'),
  ('importlib.readers',
   'C:\\Users\\NickLempert\\AppData\\Local\\Programs\\Python\\Python310\\lib\\importlib\\readers.py',
   'PYMODULE'),
  ('tokenize',
   'C:\\Users\\NickLempert\\AppData\\Local\\Programs\\Python\\Python310\\lib\\tokenize.py',
   'PYMODULE'),
  ('token',
   'C:\\Users\\NickLempert\\AppData\\Local\\Programs\\Python\\Python310\\lib\\token.py',
   'PYMODULE'),
  ('importlib._bootstrap',
   'C:\\Users\\NickLempert\\AppData\\Local\\Programs\\Python\\Python310\\lib\\importlib\\_bootstrap.py',
   'PYMODULE'),
  ('win32com.client.gencache',
   'C:\\Users\\NickLempert\\AppData\\Local\\Programs\\Python\\Python310\\lib\\site-packages\\win32com\\client\\gencache.py',
   'PYMODULE'),
  ('pickle',
   'C:\\Users\\NickLempert\\AppData\\Local\\Programs\\Python\\Python310\\lib\\pickle.py',
   'PYMODULE'),
  ('pprint',
   'C:\\Users\\NickLempert\\AppData\\Local\\Programs\\Python\\Python310\\lib\\pprint.py',
   'PYMODULE'),
  ('dataclasses',
   'C:\\Users\\NickLempert\\AppData\\Local\\Programs\\Python\\Python310\\lib\\dataclasses.py',
   'PYMODULE'),
  ('inspect',
   'C:\\Users\\NickLempert\\AppData\\Local\\Programs\\Python\\Python310\\lib\\inspect.py',
   'PYMODULE'),
  ('dis',
   'C:\\Users\\NickLempert\\AppData\\Local\\Programs\\Python\\Python310\\lib\\dis.py',
   'PYMODULE'),
  ('opcode',
   'C:\\Users\\NickLempert\\AppData\\Local\\Programs\\Python\\Python310\\lib\\opcode.py',
   'PYMODULE'),
  ('ast',
   'C:\\Users\\NickLempert\\AppData\\Local\\Programs\\Python\\Python310\\lib\\ast.py',
   'PYMODULE'),
  ('doctest',
   'C:\\Users\\NickLempert\\AppData\\Local\\Programs\\Python\\Python310\\lib\\doctest.py',
   'PYMODULE'),
  ('unittest',
   'C:\\Users\\NickLempert\\AppData\\Local\\Programs\\Python\\Python310\\lib\\unittest\\__init__.py',
   'PYMODULE'),
  ('unittest.async_case',
   'C:\\Users\\NickLempert\\AppData\\Local\\Programs\\Python\\Python310\\lib\\unittest\\async_case.py',
   'PYMODULE'),
  ('asyncio',
   'C:\\Users\\NickLempert\\AppData\\Local\\Programs\\Python\\Python310\\lib\\asyncio\\__init__.py',
   'PYMODULE'),
  ('asyncio.unix_events',
   'C:\\Users\\NickLempert\\AppData\\Local\\Programs\\Python\\Python310\\lib\\asyncio\\unix_events.py',
   'PYMODULE'),
  ('asyncio.log',
   'C:\\Users\\NickLempert\\AppData\\Local\\Programs\\Python\\Python310\\lib\\asyncio\\log.py',
   'PYMODULE'),
  ('logging',
   'C:\\Users\\NickLempert\\AppData\\Local\\Programs\\Python\\Python310\\lib\\logging\\__init__.py',
   'PYMODULE'),
  ('subprocess',
   'C:\\Users\\NickLempert\\AppData\\Local\\Programs\\Python\\Python310\\lib\\subprocess.py',
   'PYMODULE'),
  ('signal',
   'C:\\Users\\NickLempert\\AppData\\Local\\Programs\\Python\\Python310\\lib\\signal.py',
   'PYMODULE'),
  ('asyncio.windows_events',
   'C:\\Users\\NickLempert\\AppData\\Local\\Programs\\Python\\Python310\\lib\\asyncio\\windows_events.py',
   'PYMODULE'),
  ('asyncio.windows_utils',
   'C:\\Users\\NickLempert\\AppData\\Local\\Programs\\Python\\Python310\\lib\\asyncio\\windows_utils.py',
   'PYMODULE'),
  ('asyncio.selector_events',
   'C:\\Users\\NickLempert\\AppData\\Local\\Programs\\Python\\Python310\\lib\\asyncio\\selector_events.py',
   'PYMODULE'),
  ('ssl',
   'C:\\Users\\NickLempert\\AppData\\Local\\Programs\\Python\\Python310\\lib\\ssl.py',
   'PYMODULE'),
  ('asyncio.proactor_events',
   'C:\\Users\\NickLempert\\AppData\\Local\\Programs\\Python\\Python310\\lib\\asyncio\\proactor_events.py',
   'PYMODULE'),
  ('asyncio.base_subprocess',
   'C:\\Users\\NickLempert\\AppData\\Local\\Programs\\Python\\Python310\\lib\\asyncio\\base_subprocess.py',
   'PYMODULE'),
  ('asyncio.threads',
   'C:\\Users\\NickLempert\\AppData\\Local\\Programs\\Python\\Python310\\lib\\asyncio\\threads.py',
   'PYMODULE'),
  ('contextvars',
   'C:\\Users\\NickLempert\\AppData\\Local\\Programs\\Python\\Python310\\lib\\contextvars.py',
   'PYMODULE'),
  ('asyncio.subprocess',
   'C:\\Users\\NickLempert\\AppData\\Local\\Programs\\Python\\Python310\\lib\\asyncio\\subprocess.py',
   'PYMODULE'),
  ('asyncio.streams',
   'C:\\Users\\NickLempert\\AppData\\Local\\Programs\\Python\\Python310\\lib\\asyncio\\streams.py',
   'PYMODULE'),
  ('asyncio.queues',
   'C:\\Users\\NickLempert\\AppData\\Local\\Programs\\Python\\Python310\\lib\\asyncio\\queues.py',
   'PYMODULE'),
  ('asyncio.runners',
   'C:\\Users\\NickLempert\\AppData\\Local\\Programs\\Python\\Python310\\lib\\asyncio\\runners.py',
   'PYMODULE'),
  ('asyncio.events',
   'C:\\Users\\NickLempert\\AppData\\Local\\Programs\\Python\\Python310\\lib\\asyncio\\events.py',
   'PYMODULE'),
  ('asyncio.base_events',
   'C:\\Users\\NickLempert\\AppData\\Local\\Programs\\Python\\Python310\\lib\\asyncio\\base_events.py',
   'PYMODULE'),
  ('concurrent.futures',
   'C:\\Users\\NickLempert\\AppData\\Local\\Programs\\Python\\Python310\\lib\\concurrent\\futures\\__init__.py',
   'PYMODULE'),
  ('concurrent.futures.thread',
   'C:\\Users\\NickLempert\\AppData\\Local\\Programs\\Python\\Python310\\lib\\concurrent\\futures\\thread.py',
   'PYMODULE'),
  ('queue',
   'C:\\Users\\NickLempert\\AppData\\Local\\Programs\\Python\\Python310\\lib\\queue.py',
   'PYMODULE'),
  ('concurrent.futures.process',
   'C:\\Users\\NickLempert\\AppData\\Local\\Programs\\Python\\Python310\\lib\\concurrent\\futures\\process.py',
   'PYMODULE'),
  ('multiprocessing.synchronize',
   'C:\\Users\\NickLempert\\AppData\\Local\\Programs\\Python\\Python310\\lib\\multiprocessing\\synchronize.py',
   'PYMODULE'),
  ('multiprocessing.heap',
   'C:\\Users\\NickLempert\\AppData\\Local\\Programs\\Python\\Python310\\lib\\multiprocessing\\heap.py',
   'PYMODULE'),
  ('bisect',
   'C:\\Users\\NickLempert\\AppData\\Local\\Programs\\Python\\Python310\\lib\\bisect.py',
   'PYMODULE'),
  ('multiprocessing.resource_tracker',
   'C:\\Users\\NickLempert\\AppData\\Local\\Programs\\Python\\Python310\\lib\\multiprocessing\\resource_tracker.py',
   'PYMODULE'),
  ('multiprocessing.spawn',
   'C:\\Users\\NickLempert\\AppData\\Local\\Programs\\Python\\Python310\\lib\\multiprocessing\\spawn.py',
   'PYMODULE'),
  ('runpy',
   'C:\\Users\\NickLempert\\AppData\\Local\\Programs\\Python\\Python310\\lib\\runpy.py',
   'PYMODULE'),
  ('pkgutil',
   'C:\\Users\\NickLempert\\AppData\\Local\\Programs\\Python\\Python310\\lib\\pkgutil.py',
   'PYMODULE'),
  ('zipimport',
   'C:\\Users\\NickLempert\\AppData\\Local\\Programs\\Python\\Python310\\lib\\zipimport.py',
   'PYMODULE'),
  ('multiprocessing.util',
   'C:\\Users\\NickLempert\\AppData\\Local\\Programs\\Python\\Python310\\lib\\multiprocessing\\util.py',
   'PYMODULE'),
  ('multiprocessing.forkserver',
   'C:\\Users\\NickLempert\\AppData\\Local\\Programs\\Python\\Python310\\lib\\multiprocessing\\forkserver.py',
   'PYMODULE'),
  ('multiprocessing.process',
   'C:\\Users\\NickLempert\\AppData\\Local\\Programs\\Python\\Python310\\lib\\multiprocessing\\process.py',
   'PYMODULE'),
  ('multiprocessing.context',
   'C:\\Users\\NickLempert\\AppData\\Local\\Programs\\Python\\Python310\\lib\\multiprocessing\\context.py',
   'PYMODULE'),
  ('multiprocessing.popen_spawn_win32',
   'C:\\Users\\NickLempert\\AppData\\Local\\Programs\\Python\\Python310\\lib\\multiprocessing\\popen_spawn_win32.py',
   'PYMODULE'),
  ('multiprocessing.popen_forkserver',
   'C:\\Users\\NickLempert\\AppData\\Local\\Programs\\Python\\Python310\\lib\\multiprocessing\\popen_forkserver.py',
   'PYMODULE'),
  ('multiprocessing.popen_spawn_posix',
   'C:\\Users\\NickLempert\\AppData\\Local\\Programs\\Python\\Python310\\lib\\multiprocessing\\popen_spawn_posix.py',
   'PYMODULE'),
  ('multiprocessing.popen_fork',
   'C:\\Users\\NickLempert\\AppData\\Local\\Programs\\Python\\Python310\\lib\\multiprocessing\\popen_fork.py',
   'PYMODULE'),
  ('multiprocessing.sharedctypes',
   'C:\\Users\\NickLempert\\AppData\\Local\\Programs\\Python\\Python310\\lib\\multiprocessing\\sharedctypes.py',
   'PYMODULE'),
  ('ctypes',
   'C:\\Users\\NickLempert\\AppData\\Local\\Programs\\Python\\Python310\\lib\\ctypes\\__init__.py',
   'PYMODULE'),
  ('ctypes._endian',
   'C:\\Users\\NickLempert\\AppData\\Local\\Programs\\Python\\Python310\\lib\\ctypes\\_endian.py',
   'PYMODULE'),
  ('multiprocessing.pool',
   'C:\\Users\\NickLempert\\AppData\\Local\\Programs\\Python\\Python310\\lib\\multiprocessing\\pool.py',
   'PYMODULE'),
  ('multiprocessing.dummy',
   'C:\\Users\\NickLempert\\AppData\\Local\\Programs\\Python\\Python310\\lib\\multiprocessing\\dummy\\__init__.py',
   'PYMODULE'),
  ('multiprocessing.dummy.connection',
   'C:\\Users\\NickLempert\\AppData\\Local\\Programs\\Python\\Python310\\lib\\multiprocessing\\dummy\\connection.py',
   'PYMODULE'),
  ('multiprocessing.managers',
   'C:\\Users\\NickLempert\\AppData\\Local\\Programs\\Python\\Python310\\lib\\multiprocessing\\managers.py',
   'PYMODULE'),
  ('multiprocessing.shared_memory',
   'C:\\Users\\NickLempert\\AppData\\Local\\Programs\\Python\\Python310\\lib\\multiprocessing\\shared_memory.py',
   'PYMODULE'),
  ('secrets',
   'C:\\Users\\NickLempert\\AppData\\Local\\Programs\\Python\\Python310\\lib\\secrets.py',
   'PYMODULE'),
  ('hmac',
   'C:\\Users\\NickLempert\\AppData\\Local\\Programs\\Python\\Python310\\lib\\hmac.py',
   'PYMODULE'),
  ('hashlib',
   'C:\\Users\\NickLempert\\AppData\\Local\\Programs\\Python\\Python310\\lib\\hashlib.py',
   'PYMODULE'),
  ('multiprocessing.reduction',
   'C:\\Users\\NickLempert\\AppData\\Local\\Programs\\Python\\Python310\\lib\\multiprocessing\\reduction.py',
   'PYMODULE'),
  ('multiprocessing.resource_sharer',
   'C:\\Users\\NickLempert\\AppData\\Local\\Programs\\Python\\Python310\\lib\\multiprocessing\\resource_sharer.py',
   'PYMODULE'),
  ('multiprocessing.queues',
   'C:\\Users\\NickLempert\\AppData\\Local\\Programs\\Python\\Python310\\lib\\multiprocessing\\queues.py',
   'PYMODULE'),
  ('multiprocessing.connection',
   'C:\\Users\\NickLempert\\AppData\\Local\\Programs\\Python\\Python310\\lib\\multiprocessing\\connection.py',
   'PYMODULE'),
  ('xmlrpc.client',
   'C:\\Users\\NickLempert\\AppData\\Local\\Programs\\Python\\Python310\\lib\\xmlrpc\\client.py',
   'PYMODULE'),
  ('xmlrpc',
   'C:\\Users\\NickLempert\\AppData\\Local\\Programs\\Python\\Python310\\lib\\xmlrpc\\__init__.py',
   'PYMODULE'),
  ('gzip',
   'C:\\Users\\NickLempert\\AppData\\Local\\Programs\\Python\\Python310\\lib\\gzip.py',
   'PYMODULE'),
  ('xml.parsers.expat',
   'C:\\Users\\NickLempert\\AppData\\Local\\Programs\\Python\\Python310\\lib\\xml\\parsers\\expat.py',
   'PYMODULE'),
  ('xml.parsers',
   'C:\\Users\\NickLempert\\AppData\\Local\\Programs\\Python\\Python310\\lib\\xml\\parsers\\__init__.py',
   'PYMODULE'),
  ('xml',
   'C:\\Users\\NickLempert\\AppData\\Local\\Programs\\Python\\Python310\\lib\\xml\\__init__.py',
   'PYMODULE'),
  ('xml.sax.expatreader',
   'C:\\Users\\NickLempert\\AppData\\Local\\Programs\\Python\\Python310\\lib\\xml\\sax\\expatreader.py',
   'PYMODULE'),
  ('xml.sax.saxutils',
   'C:\\Users\\NickLempert\\AppData\\Local\\Programs\\Python\\Python310\\lib\\xml\\sax\\saxutils.py',
   'PYMODULE'),
  ('urllib.request',
   'C:\\Users\\NickLempert\\AppData\\Local\\Programs\\Python\\Python310\\lib\\urllib\\request.py',
   'PYMODULE'),
  ('getpass',
   'C:\\Users\\NickLempert\\AppData\\Local\\Programs\\Python\\Python310\\lib\\getpass.py',
   'PYMODULE'),
  ('nturl2path',
   'C:\\Users\\NickLempert\\AppData\\Local\\Programs\\Python\\Python310\\lib\\nturl2path.py',
   'PYMODULE'),
  ('ftplib',
   'C:\\Users\\NickLempert\\AppData\\Local\\Programs\\Python\\Python310\\lib\\ftplib.py',
   'PYMODULE'),
  ('netrc',
   'C:\\Users\\NickLempert\\AppData\\Local\\Programs\\Python\\Python310\\lib\\netrc.py',
   'PYMODULE'),
  ('shlex',
   'C:\\Users\\NickLempert\\AppData\\Local\\Programs\\Python\\Python310\\lib\\shlex.py',
   'PYMODULE'),
  ('mimetypes',
   'C:\\Users\\NickLempert\\AppData\\Local\\Programs\\Python\\Python310\\lib\\mimetypes.py',
   'PYMODULE'),
  ('http.cookiejar',
   'C:\\Users\\NickLempert\\AppData\\Local\\Programs\\Python\\Python310\\lib\\http\\cookiejar.py',
   'PYMODULE'),
  ('http',
   'C:\\Users\\NickLempert\\AppData\\Local\\Programs\\Python\\Python310\\lib\\http\\__init__.py',
   'PYMODULE'),
  ('urllib.response',
   'C:\\Users\\NickLempert\\AppData\\Local\\Programs\\Python\\Python310\\lib\\urllib\\response.py',
   'PYMODULE'),
  ('urllib.error',
   'C:\\Users\\NickLempert\\AppData\\Local\\Programs\\Python\\Python310\\lib\\urllib\\error.py',
   'PYMODULE'),
  ('xml.sax',
   'C:\\Users\\NickLempert\\AppData\\Local\\Programs\\Python\\Python310\\lib\\xml\\sax\\__init__.py',
   'PYMODULE'),
  ('xml.sax.handler',
   'C:\\Users\\NickLempert\\AppData\\Local\\Programs\\Python\\Python310\\lib\\xml\\sax\\handler.py',
   'PYMODULE'),
  ('xml.sax._exceptions',
   'C:\\Users\\NickLempert\\AppData\\Local\\Programs\\Python\\Python310\\lib\\xml\\sax\\_exceptions.py',
   'PYMODULE'),
  ('xml.sax.xmlreader',
   'C:\\Users\\NickLempert\\AppData\\Local\\Programs\\Python\\Python310\\lib\\xml\\sax\\xmlreader.py',
   'PYMODULE'),
  ('http.client',
   'C:\\Users\\NickLempert\\AppData\\Local\\Programs\\Python\\Python310\\lib\\http\\client.py',
   'PYMODULE'),
  ('decimal',
   'C:\\Users\\NickLempert\\AppData\\Local\\Programs\\Python\\Python310\\lib\\decimal.py',
   'PYMODULE'),
  ('_pydecimal',
   'C:\\Users\\NickLempert\\AppData\\Local\\Programs\\Python\\Python310\\lib\\_pydecimal.py',
   'PYMODULE'),
  ('numbers',
   'C:\\Users\\NickLempert\\AppData\\Local\\Programs\\Python\\Python310\\lib\\numbers.py',
   'PYMODULE'),
  ('multiprocessing',
   'C:\\Users\\NickLempert\\AppData\\Local\\Programs\\Python\\Python310\\lib\\multiprocessing\\__init__.py',
   'PYMODULE'),
  ('concurrent.futures._base',
   'C:\\Users\\NickLempert\\AppData\\Local\\Programs\\Python\\Python310\\lib\\concurrent\\futures\\_base.py',
   'PYMODULE'),
  ('concurrent',
   'C:\\Users\\NickLempert\\AppData\\Local\\Programs\\Python\\Python310\\lib\\concurrent\\__init__.py',
   'PYMODULE'),
  ('asyncio.trsock',
   'C:\\Users\\NickLempert\\AppData\\Local\\Programs\\Python\\Python310\\lib\\asyncio\\trsock.py',
   'PYMODULE'),
  ('asyncio.staggered',
   'C:\\Users\\NickLempert\\AppData\\Local\\Programs\\Python\\Python310\\lib\\asyncio\\staggered.py',
   'PYMODULE'),
  ('asyncio.tasks',
   'C:\\Users\\NickLempert\\AppData\\Local\\Programs\\Python\\Python310\\lib\\asyncio\\tasks.py',
   'PYMODULE'),
  ('asyncio.base_tasks',
   'C:\\Users\\NickLempert\\AppData\\Local\\Programs\\Python\\Python310\\lib\\asyncio\\base_tasks.py',
   'PYMODULE'),
  ('asyncio.locks',
   'C:\\Users\\NickLempert\\AppData\\Local\\Programs\\Python\\Python310\\lib\\asyncio\\locks.py',
   'PYMODULE'),
  ('asyncio.mixins',
   'C:\\Users\\NickLempert\\AppData\\Local\\Programs\\Python\\Python310\\lib\\asyncio\\mixins.py',
   'PYMODULE'),
  ('asyncio.sslproto',
   'C:\\Users\\NickLempert\\AppData\\Local\\Programs\\Python\\Python310\\lib\\asyncio\\sslproto.py',
   'PYMODULE'),
  ('asyncio.transports',
   'C:\\Users\\NickLempert\\AppData\\Local\\Programs\\Python\\Python310\\lib\\asyncio\\transports.py',
   'PYMODULE'),
  ('asyncio.protocols',
   'C:\\Users\\NickLempert\\AppData\\Local\\Programs\\Python\\Python310\\lib\\asyncio\\protocols.py',
   'PYMODULE'),
  ('asyncio.futures',
   'C:\\Users\\NickLempert\\AppData\\Local\\Programs\\Python\\Python310\\lib\\asyncio\\futures.py',
   'PYMODULE'),
  ('asyncio.exceptions',
   'C:\\Users\\NickLempert\\AppData\\Local\\Programs\\Python\\Python310\\lib\\asyncio\\exceptions.py',
   'PYMODULE'),
  ('asyncio.coroutines',
   'C:\\Users\\NickLempert\\AppData\\Local\\Programs\\Python\\Python310\\lib\\asyncio\\coroutines.py',
   'PYMODULE'),
  ('asyncio.base_futures',
   'C:\\Users\\NickLempert\\AppData\\Local\\Programs\\Python\\Python310\\lib\\asyncio\\base_futures.py',
   'PYMODULE'),
  ('asyncio.format_helpers',
   'C:\\Users\\NickLempert\\AppData\\Local\\Programs\\Python\\Python310\\lib\\asyncio\\format_helpers.py',
   'PYMODULE'),
  ('asyncio.constants',
   'C:\\Users\\NickLempert\\AppData\\Local\\Programs\\Python\\Python310\\lib\\asyncio\\constants.py',
   'PYMODULE'),
  ('unittest.signals',
   'C:\\Users\\NickLempert\\AppData\\Local\\Programs\\Python\\Python310\\lib\\unittest\\signals.py',
   'PYMODULE'),
  ('unittest.main',
   'C:\\Users\\NickLempert\\AppData\\Local\\Programs\\Python\\Python310\\lib\\unittest\\main.py',
   'PYMODULE'),
  ('unittest.runner',
   'C:\\Users\\NickLempert\\AppData\\Local\\Programs\\Python\\Python310\\lib\\unittest\\runner.py',
   'PYMODULE'),
  ('unittest.loader',
   'C:\\Users\\NickLempert\\AppData\\Local\\Programs\\Python\\Python310\\lib\\unittest\\loader.py',
   'PYMODULE'),
  ('unittest.suite',
   'C:\\Users\\NickLempert\\AppData\\Local\\Programs\\Python\\Python310\\lib\\unittest\\suite.py',
   'PYMODULE'),
  ('unittest.case',
   'C:\\Users\\NickLempert\\AppData\\Local\\Programs\\Python\\Python310\\lib\\unittest\\case.py',
   'PYMODULE'),
  ('unittest._log',
   'C:\\Users\\NickLempert\\AppData\\Local\\Programs\\Python\\Python310\\lib\\unittest\\_log.py',
   'PYMODULE'),
  ('unittest.result',
   'C:\\Users\\NickLempert\\AppData\\Local\\Programs\\Python\\Python310\\lib\\unittest\\result.py',
   'PYMODULE'),
  ('unittest.util',
   'C:\\Users\\NickLempert\\AppData\\Local\\Programs\\Python\\Python310\\lib\\unittest\\util.py',
   'PYMODULE'),
  ('pdb',
   'C:\\Users\\NickLempert\\AppData\\Local\\Programs\\Python\\Python310\\lib\\pdb.py',
   'PYMODULE'),
  ('pydoc',
   'C:\\Users\\NickLempert\\AppData\\Local\\Programs\\Python\\Python310\\lib\\pydoc.py',
   'PYMODULE'),
  ('webbrowser',
   'C:\\Users\\NickLempert\\AppData\\Local\\Programs\\Python\\Python310\\lib\\webbrowser.py',
   'PYMODULE'),
  ('http.server',
   'C:\\Users\\NickLempert\\AppData\\Local\\Programs\\Python\\Python310\\lib\\http\\server.py',
   'PYMODULE'),
  ('socketserver',
   'C:\\Users\\NickLempert\\AppData\\Local\\Programs\\Python\\Python310\\lib\\socketserver.py',
   'PYMODULE'),
  ('html',
   'C:\\Users\\NickLempert\\AppData\\Local\\Programs\\Python\\Python310\\lib\\html\\__init__.py',
   'PYMODULE'),
  ('html.entities',
   'C:\\Users\\NickLempert\\AppData\\Local\\Programs\\Python\\Python310\\lib\\html\\entities.py',
   'PYMODULE'),
  ('pydoc_data.topics',
   'C:\\Users\\NickLempert\\AppData\\Local\\Programs\\Python\\Python310\\lib\\pydoc_data\\topics.py',
   'PYMODULE'),
  ('pydoc_data',
   'C:\\Users\\NickLempert\\AppData\\Local\\Programs\\Python\\Python310\\lib\\pydoc_data\\__init__.py',
   'PYMODULE'),
  ('tty',
   'C:\\Users\\NickLempert\\AppData\\Local\\Programs\\Python\\Python310\\lib\\tty.py',
   'PYMODULE'),
  ('sysconfig',
   'C:\\Users\\NickLempert\\AppData\\Local\\Programs\\Python\\Python310\\lib\\sysconfig.py',
   'PYMODULE'),
  ('_aix_support',
   'C:\\Users\\NickLempert\\AppData\\Local\\Programs\\Python\\Python310\\lib\\_aix_support.py',
   'PYMODULE'),
  ('_bootsubprocess',
   'C:\\Users\\NickLempert\\AppData\\Local\\Programs\\Python\\Python310\\lib\\_bootsubprocess.py',
   'PYMODULE'),
  ('_osx_support',
   'C:\\Users\\NickLempert\\AppData\\Local\\Programs\\Python\\Python310\\lib\\_osx_support.py',
   'PYMODULE'),
  ('platform',
   'C:\\Users\\NickLempert\\AppData\\Local\\Programs\\Python\\Python310\\lib\\platform.py',
   'PYMODULE'),
  ('plistlib',
   'C:\\Users\\NickLempert\\AppData\\Local\\Programs\\Python\\Python310\\lib\\plistlib.py',
   'PYMODULE'),
  ('code',
   'C:\\Users\\NickLempert\\AppData\\Local\\Programs\\Python\\Python310\\lib\\code.py',
   'PYMODULE'),
  ('codeop',
   'C:\\Users\\NickLempert\\AppData\\Local\\Programs\\Python\\Python310\\lib\\codeop.py',
   'PYMODULE'),
  ('bdb',
   'C:\\Users\\NickLempert\\AppData\\Local\\Programs\\Python\\Python310\\lib\\bdb.py',
   'PYMODULE'),
  ('cmd',
   'C:\\Users\\NickLempert\\AppData\\Local\\Programs\\Python\\Python310\\lib\\cmd.py',
   'PYMODULE'),
  ('difflib',
   'C:\\Users\\NickLempert\\AppData\\Local\\Programs\\Python\\Python310\\lib\\difflib.py',
   'PYMODULE'),
  ('__future__',
   'C:\\Users\\NickLempert\\AppData\\Local\\Programs\\Python\\Python310\\lib\\__future__.py',
   'PYMODULE'),
  ('_compat_pickle',
   'C:\\Users\\NickLempert\\AppData\\Local\\Programs\\Python\\Python310\\lib\\_compat_pickle.py',
   'PYMODULE'),
  ('glob',
   'C:\\Users\\NickLempert\\AppData\\Local\\Programs\\Python\\Python310\\lib\\glob.py',
   'PYMODULE'),
  ('win32com.client.selecttlb',
   'C:\\Users\\NickLempert\\AppData\\Local\\Programs\\Python\\Python310\\lib\\site-packages\\win32com\\client\\selecttlb.py',
   'PYMODULE'),
  ('pywin.dialogs.list',
   'C:\\Users\\NickLempert\\AppData\\Local\\Programs\\Python\\Python310\\lib\\site-packages\\Pythonwin\\pywin\\dialogs\\list.py',
   'PYMODULE'),
  ('commctrl',
   'C:\\Users\\NickLempert\\AppData\\Local\\Programs\\Python\\Python310\\lib\\site-packages\\win32\\lib\\commctrl.py',
   'PYMODULE'),
  ('win32com.client.genpy',
   'C:\\Users\\NickLempert\\AppData\\Local\\Programs\\Python\\Python310\\lib\\site-packages\\win32com\\client\\genpy.py',
   'PYMODULE'),
  ('win32com.client.CLSIDToClass',
   'C:\\Users\\NickLempert\\AppData\\Local\\Programs\\Python\\Python310\\lib\\site-packages\\win32com\\client\\CLSIDToClass.py',
   'PYMODULE'),
  ('win32com.client.dynamic',
   'C:\\Users\\NickLempert\\AppData\\Local\\Programs\\Python\\Python310\\lib\\site-packages\\win32com\\client\\dynamic.py',
   'PYMODULE'),
  ('win32com.client.build',
   'C:\\Users\\NickLempert\\AppData\\Local\\Programs\\Python\\Python310\\lib\\site-packages\\win32com\\client\\build.py',
   'PYMODULE'),
  ('pywintypes',
   'C:\\Users\\NickLempert\\AppData\\Local\\Programs\\Python\\Python310\\lib\\site-packages\\win32\\lib\\pywintypes.py',
   'PYMODULE'),
  ('site',
   'C:\\Users\\NickLempert\\AppData\\Local\\Programs\\Python\\Python310\\lib\\site-packages\\PyInstaller\\fake-modules\\site.py',
   'PYMODULE'),
  ('win32com.server',
   'C:\\Users\\NickLempert\\AppData\\Local\\Programs\\Python\\Python310\\lib\\site-packages\\win32com\\server\\__init__.py',
   'PYMODULE'),
  ('win32com.universal',
   'C:\\Users\\NickLempert\\AppData\\Local\\Programs\\Python\\Python310\\lib\\site-packages\\win32com\\universal.py',
   'PYMODULE'),
  ('win32com.client.util',
   'C:\\Users\\NickLempert\\AppData\\Local\\Programs\\Python\\Python310\\lib\\site-packages\\win32com\\client\\util.py',
   'PYMODULE'),
  ('pythoncom',
   'C:\\Users\\NickLempert\\AppData\\Local\\Programs\\Python\\Python310\\lib\\site-packages\\pythoncom.py',
   'PYMODULE'),
  ('tempfile',
   'C:\\Users\\NickLempert\\AppData\\Local\\Programs\\Python\\Python310\\lib\\tempfile.py',
   'PYMODULE'),
  ('shutil',
   'C:\\Users\\NickLempert\\AppData\\Local\\Programs\\Python\\Python310\\lib\\shutil.py',
   'PYMODULE'),
  ('tarfile',
   'C:\\Users\\NickLempert\\AppData\\Local\\Programs\\Python\\Python310\\lib\\tarfile.py',
   'PYMODULE'),
  ('os',
   'C:\\Users\\NickLempert\\AppData\\Local\\Programs\\Python\\Python310\\lib\\os.py',
   'PYMODULE'),
  ('pkg_resources',
   'C:\\Users\\NickLempert\\AppData\\Local\\Programs\\Python\\Python310\\lib\\site-packages\\pkg_resources\\__init__.py',
   'PYMODULE'),
  ('pkg_resources._vendor.packaging.markers',
   'C:\\Users\\NickLempert\\AppData\\Local\\Programs\\Python\\Python310\\lib\\site-packages\\pkg_resources\\_vendor\\packaging\\markers.py',
   'PYMODULE'),
  ('pkg_resources._vendor',
   'C:\\Users\\NickLempert\\AppData\\Local\\Programs\\Python\\Python310\\lib\\site-packages\\pkg_resources\\_vendor\\__init__.py',
   'PYMODULE'),
  ('pkg_resources._vendor.pyparsing',
   'C:\\Users\\NickLempert\\AppData\\Local\\Programs\\Python\\Python310\\lib\\site-packages\\pkg_resources\\_vendor\\pyparsing.py',
   'PYMODULE'),
  ('uuid',
   'C:\\Users\\NickLempert\\AppData\\Local\\Programs\\Python\\Python310\\lib\\uuid.py',
   'PYMODULE'),
  ('pkg_resources._vendor.packaging._typing',
   'C:\\Users\\NickLempert\\AppData\\Local\\Programs\\Python\\Python310\\lib\\site-packages\\pkg_resources\\_vendor\\packaging\\_typing.py',
   'PYMODULE'),
  ('pkg_resources._vendor.packaging.version',
   'C:\\Users\\NickLempert\\AppData\\Local\\Programs\\Python\\Python310\\lib\\site-packages\\pkg_resources\\_vendor\\packaging\\version.py',
   'PYMODULE'),
  ('pkg_resources._vendor.packaging.specifiers',
   'C:\\Users\\NickLempert\\AppData\\Local\\Programs\\Python\\Python310\\lib\\site-packages\\pkg_resources\\_vendor\\packaging\\specifiers.py',
   'PYMODULE'),
  ('pkg_resources._vendor.packaging.requirements',
   'C:\\Users\\NickLempert\\AppData\\Local\\Programs\\Python\\Python310\\lib\\site-packages\\pkg_resources\\_vendor\\packaging\\requirements.py',
   'PYMODULE'),
  ('pkg_resources._vendor.packaging',
   'C:\\Users\\NickLempert\\AppData\\Local\\Programs\\Python\\Python310\\lib\\site-packages\\pkg_resources\\_vendor\\packaging\\__init__.py',
   'PYMODULE'),
  ('pkg_resources._vendor.packaging._structures',
   'C:\\Users\\NickLempert\\AppData\\Local\\Programs\\Python\\Python310\\lib\\site-packages\\pkg_resources\\_vendor\\packaging\\_structures.py',
   'PYMODULE'),
  ('pkg_resources._vendor.appdirs',
   'C:\\Users\\NickLempert\\AppData\\Local\\Programs\\Python\\Python310\\lib\\site-packages\\pkg_resources\\_vendor\\appdirs.py',
   'PYMODULE'),
  ('win32com.shell.shellcon',
   'C:\\Users\\NickLempert\\AppData\\Local\\Programs\\Python\\Python310\\lib\\site-packages\\win32comext\\shell\\shellcon.py',
   'PYMODULE'),
  ('win32com.shell',
   'C:\\Users\\NickLempert\\AppData\\Local\\Programs\\Python\\Python310\\lib\\site-packages\\win32comext\\shell\\__init__.py',
   'PYMODULE'),
  ('pkg_resources._vendor.packaging.__about__',
   'C:\\Users\\NickLempert\\AppData\\Local\\Programs\\Python\\Python310\\lib\\site-packages\\pkg_resources\\_vendor\\packaging\\__about__.py',
   'PYMODULE'),
  ('pkg_resources._vendor.packaging.utils',
   'C:\\Users\\NickLempert\\AppData\\Local\\Programs\\Python\\Python310\\lib\\site-packages\\pkg_resources\\_vendor\\packaging\\utils.py',
   'PYMODULE'),
  ('pkg_resources._vendor.packaging._compat',
   'C:\\Users\\NickLempert\\AppData\\Local\\Programs\\Python\\Python310\\lib\\site-packages\\pkg_resources\\_vendor\\packaging\\_compat.py',
   'PYMODULE'),
  ('pkg_resources._vendor.packaging.tags',
   'C:\\Users\\NickLempert\\AppData\\Local\\Programs\\Python\\Python310\\lib\\site-packages\\pkg_resources\\_vendor\\packaging\\tags.py',
   'PYMODULE'),
  ('distutils.util',
   'C:\\Users\\NickLempert\\AppData\\Local\\Programs\\Python\\Python310\\lib\\distutils\\util.py',
   'PYMODULE'),
  ('distutils.filelist',
   'C:\\Users\\NickLempert\\AppData\\Local\\Programs\\Python\\Python310\\lib\\distutils\\filelist.py',
   'PYMODULE'),
  ('distutils.debug',
   'C:\\Users\\NickLempert\\AppData\\Local\\Programs\\Python\\Python310\\lib\\distutils\\debug.py',
   'PYMODULE'),
  ('distutils.file_util',
   'C:\\Users\\NickLempert\\AppData\\Local\\Programs\\Python\\Python310\\lib\\distutils\\file_util.py',
   'PYMODULE'),
  ('distutils.dir_util',
   'C:\\Users\\NickLempert\\AppData\\Local\\Programs\\Python\\Python310\\lib\\distutils\\dir_util.py',
   'PYMODULE'),
  ('distutils.sysconfig',
   'C:\\Users\\NickLempert\\AppData\\Local\\Programs\\Python\\Python310\\lib\\distutils\\sysconfig.py',
   'PYMODULE'),
  ('distutils.text_file',
   'C:\\Users\\NickLempert\\AppData\\Local\\Programs\\Python\\Python310\\lib\\distutils\\text_file.py',
   'PYMODULE'),
  ('distutils.log',
   'C:\\Users\\NickLempert\\AppData\\Local\\Programs\\Python\\Python310\\lib\\distutils\\log.py',
   'PYMODULE'),
  ('distutils.spawn',
   'C:\\Users\\NickLempert\\AppData\\Local\\Programs\\Python\\Python310\\lib\\distutils\\spawn.py',
   'PYMODULE'),
  ('distutils.dep_util',
   'C:\\Users\\NickLempert\\AppData\\Local\\Programs\\Python\\Python310\\lib\\distutils\\dep_util.py',
   'PYMODULE'),
  ('distutils.errors',
   'C:\\Users\\NickLempert\\AppData\\Local\\Programs\\Python\\Python310\\lib\\distutils\\errors.py',
   'PYMODULE'),
  ('distutils',
   'C:\\Users\\NickLempert\\AppData\\Local\\Programs\\Python\\Python310\\lib\\distutils\\__init__.py',
   'PYMODULE'),
  ('distutils.archive_util',
   'C:\\Users\\NickLempert\\AppData\\Local\\Programs\\Python\\Python310\\lib\\distutils\\archive_util.py',
   'PYMODULE'),
  ('distutils.ccompiler',
   'C:\\Users\\NickLempert\\AppData\\Local\\Programs\\Python\\Python310\\lib\\distutils\\ccompiler.py',
   'PYMODULE'),
  ('distutils.fancy_getopt',
   'C:\\Users\\NickLempert\\AppData\\Local\\Programs\\Python\\Python310\\lib\\distutils\\fancy_getopt.py',
   'PYMODULE'),
  ('pkg_resources.extern',
   'C:\\Users\\NickLempert\\AppData\\Local\\Programs\\Python\\Python310\\lib\\site-packages\\pkg_resources\\extern\\__init__.py',
   'PYMODULE'),
  ('imp',
   'C:\\Users\\NickLempert\\AppData\\Local\\Programs\\Python\\Python310\\lib\\imp.py',
   'PYMODULE'),
  ('stringprep',
   'C:\\Users\\NickLempert\\AppData\\Local\\Programs\\Python\\Python310\\lib\\stringprep.py',
   'PYMODULE'),
  ('_py_abc',
   'C:\\Users\\NickLempert\\AppData\\Local\\Programs\\Python\\Python310\\lib\\_py_abc.py',
   'PYMODULE'),
  ('tracemalloc',
   'C:\\Users\\NickLempert\\AppData\\Local\\Programs\\Python\\Python310\\lib\\tracemalloc.py',
   'PYMODULE'),
  ('random',
   'C:\\Users\\NickLempert\\AppData\\Local\\Programs\\Python\\Python310\\lib\\random.py',
   'PYMODULE'),
  ('statistics',
   'C:\\Users\\NickLempert\\AppData\\Local\\Programs\\Python\\Python310\\lib\\statistics.py',
   'PYMODULE'),
  ('fractions',
   'C:\\Users\\NickLempert\\AppData\\Local\\Programs\\Python\\Python310\\lib\\fractions.py',
   'PYMODULE'),
  ('pygame',
   'C:\\Users\\NickLempert\\AppData\\Local\\Programs\\Python\\Python310\\lib\\site-packages\\pygame\\__init__.py',
   'PYMODULE'),
  ('pygame.colordict',
   'C:\\Users\\NickLempert\\AppData\\Local\\Programs\\Python\\Python310\\lib\\site-packages\\pygame\\colordict.py',
   'PYMODULE'),
  ('pygame.macosx',
   'C:\\Users\\NickLempert\\AppData\\Local\\Programs\\Python\\Python310\\lib\\site-packages\\pygame\\macosx.py',
   'PYMODULE'),
  ('pygame.pkgdata',
   'C:\\Users\\NickLempert\\AppData\\Local\\Programs\\Python\\Python310\\lib\\site-packages\\pygame\\pkgdata.py',
   'PYMODULE'),
  ('numpy',
   'C:\\Users\\NickLempert\\AppData\\Local\\Programs\\Python\\Python310\\lib\\site-packages\\numpy\\__init__.py',
   'PYMODULE'),
  ('numpy.core._dtype_ctypes',
   'C:\\Users\\NickLempert\\AppData\\Local\\Programs\\Python\\Python310\\lib\\site-packages\\numpy\\core\\_dtype_ctypes.py',
   'PYMODULE'),
  ('numpy.version',
   'C:\\Users\\NickLempert\\AppData\\Local\\Programs\\Python\\Python310\\lib\\site-packages\\numpy\\version.py',
   'PYMODULE'),
  ('numpy._version',
   'C:\\Users\\NickLempert\\AppData\\Local\\Programs\\Python\\Python310\\lib\\site-packages\\numpy\\_version.py',
   'PYMODULE'),
  ('json',
   'C:\\Users\\NickLempert\\AppData\\Local\\Programs\\Python\\Python310\\lib\\json\\__init__.py',
   'PYMODULE'),
  ('json.encoder',
   'C:\\Users\\NickLempert\\AppData\\Local\\Programs\\Python\\Python310\\lib\\json\\encoder.py',
   'PYMODULE'),
  ('json.decoder',
   'C:\\Users\\NickLempert\\AppData\\Local\\Programs\\Python\\Python310\\lib\\json\\decoder.py',
   'PYMODULE'),
  ('json.scanner',
   'C:\\Users\\NickLempert\\AppData\\Local\\Programs\\Python\\Python310\\lib\\json\\scanner.py',
   'PYMODULE'),
  ('numpy._pytesttester',
   'C:\\Users\\NickLempert\\AppData\\Local\\Programs\\Python\\Python310\\lib\\site-packages\\numpy\\_pytesttester.py',
   'PYMODULE'),
  ('numpy.testing',
   'C:\\Users\\NickLempert\\AppData\\Local\\Programs\\Python\\Python310\\lib\\site-packages\\numpy\\testing\\__init__.py',
   'PYMODULE'),
  ('numpy.testing._private.nosetester',
   'C:\\Users\\NickLempert\\AppData\\Local\\Programs\\Python\\Python310\\lib\\site-packages\\numpy\\testing\\_private\\nosetester.py',
   'PYMODULE'),
  ('numpy.testing._private.noseclasses',
   'C:\\Users\\NickLempert\\AppData\\Local\\Programs\\Python\\Python310\\lib\\site-packages\\numpy\\testing\\_private\\noseclasses.py',
   'PYMODULE'),
  ('numpy.testing._private.decorators',
   'C:\\Users\\NickLempert\\AppData\\Local\\Programs\\Python\\Python310\\lib\\site-packages\\numpy\\testing\\_private\\decorators.py',
   'PYMODULE'),
  ('numpy.testing._private.parameterized',
   'C:\\Users\\NickLempert\\AppData\\Local\\Programs\\Python\\Python310\\lib\\site-packages\\numpy\\testing\\_private\\parameterized.py',
   'PYMODULE'),
  ('numpy.testing._private.extbuild',
   'C:\\Users\\NickLempert\\AppData\\Local\\Programs\\Python\\Python310\\lib\\site-packages\\numpy\\testing\\_private\\extbuild.py',
   'PYMODULE'),
  ('numpy.testing._private',
   'C:\\Users\\NickLempert\\AppData\\Local\\Programs\\Python\\Python310\\lib\\site-packages\\numpy\\testing\\_private\\__init__.py',
   'PYMODULE'),
  ('numpy.testing._private.utils',
   'C:\\Users\\NickLempert\\AppData\\Local\\Programs\\Python\\Python310\\lib\\site-packages\\numpy\\testing\\_private\\utils.py',
   'PYMODULE'),
  ('psutil',
   'C:\\Users\\NickLempert\\AppData\\Local\\Programs\\Python\\Python310\\lib\\site-packages\\psutil\\__init__.py',
   'PYMODULE'),
  ('psutil._psaix',
   'C:\\Users\\NickLempert\\AppData\\Local\\Programs\\Python\\Python310\\lib\\site-packages\\psutil\\_psaix.py',
   'PYMODULE'),
  ('psutil._pssunos',
   'C:\\Users\\NickLempert\\AppData\\Local\\Programs\\Python\\Python310\\lib\\site-packages\\psutil\\_pssunos.py',
   'PYMODULE'),
  ('psutil._psbsd',
   'C:\\Users\\NickLempert\\AppData\\Local\\Programs\\Python\\Python310\\lib\\site-packages\\psutil\\_psbsd.py',
   'PYMODULE'),
  ('xml.etree.ElementTree',
   'C:\\Users\\NickLempert\\AppData\\Local\\Programs\\Python\\Python310\\lib\\xml\\etree\\ElementTree.py',
   'PYMODULE'),
  ('xml.etree.cElementTree',
   'C:\\Users\\NickLempert\\AppData\\Local\\Programs\\Python\\Python310\\lib\\xml\\etree\\cElementTree.py',
   'PYMODULE'),
  ('xml.etree.ElementInclude',
   'C:\\Users\\NickLempert\\AppData\\Local\\Programs\\Python\\Python310\\lib\\xml\\etree\\ElementInclude.py',
   'PYMODULE'),
  ('xml.etree.ElementPath',
   'C:\\Users\\NickLempert\\AppData\\Local\\Programs\\Python\\Python310\\lib\\xml\\etree\\ElementPath.py',
   'PYMODULE'),
  ('xml.etree',
   'C:\\Users\\NickLempert\\AppData\\Local\\Programs\\Python\\Python310\\lib\\xml\\etree\\__init__.py',
   'PYMODULE'),
  ('psutil._psosx',
   'C:\\Users\\NickLempert\\AppData\\Local\\Programs\\Python\\Python310\\lib\\site-packages\\psutil\\_psosx.py',
   'PYMODULE'),
  ('psutil._pswindows',
   'C:\\Users\\NickLempert\\AppData\\Local\\Programs\\Python\\Python310\\lib\\site-packages\\psutil\\_pswindows.py',
   'PYMODULE'),
  ('psutil._pslinux',
   'C:\\Users\\NickLempert\\AppData\\Local\\Programs\\Python\\Python310\\lib\\site-packages\\psutil\\_pslinux.py',
   'PYMODULE'),
  ('psutil._psposix',
   'C:\\Users\\NickLempert\\AppData\\Local\\Programs\\Python\\Python310\\lib\\site-packages\\psutil\\_psposix.py',
   'PYMODULE'),
  ('psutil._compat',
   'C:\\Users\\NickLempert\\AppData\\Local\\Programs\\Python\\Python310\\lib\\site-packages\\psutil\\_compat.py',
   'PYMODULE'),
  ('psutil._common',
   'C:\\Users\\NickLempert\\AppData\\Local\\Programs\\Python\\Python310\\lib\\site-packages\\psutil\\_common.py',
   'PYMODULE'),
  ('curses',
   'C:\\Users\\NickLempert\\AppData\\Local\\Programs\\Python\\Python310\\lib\\curses\\__init__.py',
   'PYMODULE'),
  ('curses.has_key',
   'C:\\Users\\NickLempert\\AppData\\Local\\Programs\\Python\\Python310\\lib\\curses\\has_key.py',
   'PYMODULE'),
  ('numpy.core.fromnumeric',
   'C:\\Users\\NickLempert\\AppData\\Local\\Programs\\Python\\Python310\\lib\\site-packages\\numpy\\core\\fromnumeric.py',
   'PYMODULE'),
  ('numpy.core._methods',
   'C:\\Users\\NickLempert\\AppData\\Local\\Programs\\Python\\Python310\\lib\\site-packages\\numpy\\core\\_methods.py',
   'PYMODULE'),
  ('numpy.lib.stride_tricks',
   'C:\\Users\\NickLempert\\AppData\\Local\\Programs\\Python\\Python310\\lib\\site-packages\\numpy\\lib\\stride_tricks.py',
   'PYMODULE'),
  ('numpy.core.numeric',
   'C:\\Users\\NickLempert\\AppData\\Local\\Programs\\Python\\Python310\\lib\\site-packages\\numpy\\core\\numeric.py',
   'PYMODULE'),
  ('numpy.core._asarray',
   'C:\\Users\\NickLempert\\AppData\\Local\\Programs\\Python\\Python310\\lib\\site-packages\\numpy\\core\\_asarray.py',
   'PYMODULE'),
  ('numpy.core.arrayprint',
   'C:\\Users\\NickLempert\\AppData\\Local\\Programs\\Python\\Python310\\lib\\site-packages\\numpy\\core\\arrayprint.py',
   'PYMODULE'),
  ('numpy.core._ufunc_config',
   'C:\\Users\\NickLempert\\AppData\\Local\\Programs\\Python\\Python310\\lib\\site-packages\\numpy\\core\\_ufunc_config.py',
   'PYMODULE'),
  ('numpy.core.shape_base',
   'C:\\Users\\NickLempert\\AppData\\Local\\Programs\\Python\\Python310\\lib\\site-packages\\numpy\\core\\shape_base.py',
   'PYMODULE'),
  ('numpy.core._exceptions',
   'C:\\Users\\NickLempert\\AppData\\Local\\Programs\\Python\\Python310\\lib\\site-packages\\numpy\\core\\_exceptions.py',
   'PYMODULE'),
  ('numpy.core.umath',
   'C:\\Users\\NickLempert\\AppData\\Local\\Programs\\Python\\Python310\\lib\\site-packages\\numpy\\core\\umath.py',
   'PYMODULE'),
  ('numpy.core.overrides',
   'C:\\Users\\NickLempert\\AppData\\Local\\Programs\\Python\\Python310\\lib\\site-packages\\numpy\\core\\overrides.py',
   'PYMODULE'),
  ('numpy.compat._inspect',
   'C:\\Users\\NickLempert\\AppData\\Local\\Programs\\Python\\Python310\\lib\\site-packages\\numpy\\compat\\_inspect.py',
   'PYMODULE'),
  ('numpy.core.multiarray',
   'C:\\Users\\NickLempert\\AppData\\Local\\Programs\\Python\\Python310\\lib\\site-packages\\numpy\\core\\multiarray.py',
   'PYMODULE'),
  ('numpy.core.numerictypes',
   'C:\\Users\\NickLempert\\AppData\\Local\\Programs\\Python\\Python310\\lib\\site-packages\\numpy\\core\\numerictypes.py',
   'PYMODULE'),
  ('numpy.core._dtype',
   'C:\\Users\\NickLempert\\AppData\\Local\\Programs\\Python\\Python310\\lib\\site-packages\\numpy\\core\\_dtype.py',
   'PYMODULE'),
  ('numpy.core._type_aliases',
   'C:\\Users\\NickLempert\\AppData\\Local\\Programs\\Python\\Python310\\lib\\site-packages\\numpy\\core\\_type_aliases.py',
   'PYMODULE'),
  ('numpy.core._string_helpers',
   'C:\\Users\\NickLempert\\AppData\\Local\\Programs\\Python\\Python310\\lib\\site-packages\\numpy\\core\\_string_helpers.py',
   'PYMODULE'),
  ('numpy.matrixlib',
   'C:\\Users\\NickLempert\\AppData\\Local\\Programs\\Python\\Python310\\lib\\site-packages\\numpy\\matrixlib\\__init__.py',
   'PYMODULE'),
  ('numpy.matrixlib.defmatrix',
   'C:\\Users\\NickLempert\\AppData\\Local\\Programs\\Python\\Python310\\lib\\site-packages\\numpy\\matrixlib\\defmatrix.py',
   'PYMODULE'),
  ('numpy.ma',
   'C:\\Users\\NickLempert\\AppData\\Local\\Programs\\Python\\Python310\\lib\\site-packages\\numpy\\ma\\__init__.py',
   'PYMODULE'),
  ('numpy.ma.extras',
   'C:\\Users\\NickLempert\\AppData\\Local\\Programs\\Python\\Python310\\lib\\site-packages\\numpy\\ma\\extras.py',
   'PYMODULE'),
  ('numpy.lib.index_tricks',
   'C:\\Users\\NickLempert\\AppData\\Local\\Programs\\Python\\Python310\\lib\\site-packages\\numpy\\lib\\index_tricks.py',
   'PYMODULE'),
  ('numpy.lib.function_base',
   'C:\\Users\\NickLempert\\AppData\\Local\\Programs\\Python\\Python310\\lib\\site-packages\\numpy\\lib\\function_base.py',
   'PYMODULE'),
  ('numpy.lib.histograms',
   'C:\\Users\\NickLempert\\AppData\\Local\\Programs\\Python\\Python310\\lib\\site-packages\\numpy\\lib\\histograms.py',
   'PYMODULE'),
  ('numpy.lib.twodim_base',
   'C:\\Users\\NickLempert\\AppData\\Local\\Programs\\Python\\Python310\\lib\\site-packages\\numpy\\lib\\twodim_base.py',
   'PYMODULE'),
  ('numpy.core.function_base',
   'C:\\Users\\NickLempert\\AppData\\Local\\Programs\\Python\\Python310\\lib\\site-packages\\numpy\\core\\function_base.py',
   'PYMODULE'),
  ('numpy.ma.core',
   'C:\\Users\\NickLempert\\AppData\\Local\\Programs\\Python\\Python310\\lib\\site-packages\\numpy\\ma\\core.py',
   'PYMODULE'),
  ('numpy.ctypeslib',
   'C:\\Users\\NickLempert\\AppData\\Local\\Programs\\Python\\Python310\\lib\\site-packages\\numpy\\ctypeslib.py',
   'PYMODULE'),
  ('numpy.core._internal',
   'C:\\Users\\NickLempert\\AppData\\Local\\Programs\\Python\\Python310\\lib\\site-packages\\numpy\\core\\_internal.py',
   'PYMODULE'),
  ('numpy.random',
   'C:\\Users\\NickLempert\\AppData\\Local\\Programs\\Python\\Python310\\lib\\site-packages\\numpy\\random\\__init__.py',
   'PYMODULE'),
  ('numpy.random._pickle',
   'C:\\Users\\NickLempert\\AppData\\Local\\Programs\\Python\\Python310\\lib\\site-packages\\numpy\\random\\_pickle.py',
   'PYMODULE'),
  ('numpy.polynomial',
   'C:\\Users\\NickLempert\\AppData\\Local\\Programs\\Python\\Python310\\lib\\site-packages\\numpy\\polynomial\\__init__.py',
   'PYMODULE'),
  ('numpy.polynomial._polybase',
   'C:\\Users\\NickLempert\\AppData\\Local\\Programs\\Python\\Python310\\lib\\site-packages\\numpy\\polynomial\\_polybase.py',
   'PYMODULE'),
  ('numpy.polynomial.laguerre',
   'C:\\Users\\NickLempert\\AppData\\Local\\Programs\\Python\\Python310\\lib\\site-packages\\numpy\\polynomial\\laguerre.py',
   'PYMODULE'),
  ('numpy.polynomial.hermite_e',
   'C:\\Users\\NickLempert\\AppData\\Local\\Programs\\Python\\Python310\\lib\\site-packages\\numpy\\polynomial\\hermite_e.py',
   'PYMODULE'),
  ('numpy.polynomial.hermite',
   'C:\\Users\\NickLempert\\AppData\\Local\\Programs\\Python\\Python310\\lib\\site-packages\\numpy\\polynomial\\hermite.py',
   'PYMODULE'),
  ('numpy.polynomial.legendre',
   'C:\\Users\\NickLempert\\AppData\\Local\\Programs\\Python\\Python310\\lib\\site-packages\\numpy\\polynomial\\legendre.py',
   'PYMODULE'),
  ('numpy.polynomial.chebyshev',
   'C:\\Users\\NickLempert\\AppData\\Local\\Programs\\Python\\Python310\\lib\\site-packages\\numpy\\polynomial\\chebyshev.py',
   'PYMODULE'),
  ('numpy.polynomial.polynomial',
   'C:\\Users\\NickLempert\\AppData\\Local\\Programs\\Python\\Python310\\lib\\site-packages\\numpy\\polynomial\\polynomial.py',
   'PYMODULE'),
  ('numpy.polynomial.polyutils',
   'C:\\Users\\NickLempert\\AppData\\Local\\Programs\\Python\\Python310\\lib\\site-packages\\numpy\\polynomial\\polyutils.py',
   'PYMODULE'),
  ('numpy.fft',
   'C:\\Users\\NickLempert\\AppData\\Local\\Programs\\Python\\Python310\\lib\\site-packages\\numpy\\fft\\__init__.py',
   'PYMODULE'),
  ('numpy.fft.helper',
   'C:\\Users\\NickLempert\\AppData\\Local\\Programs\\Python\\Python310\\lib\\site-packages\\numpy\\fft\\helper.py',
   'PYMODULE'),
  ('numpy.fft._pocketfft',
   'C:\\Users\\NickLempert\\AppData\\Local\\Programs\\Python\\Python310\\lib\\site-packages\\numpy\\fft\\_pocketfft.py',
   'PYMODULE'),
  ('numpy.linalg',
   'C:\\Users\\NickLempert\\AppData\\Local\\Programs\\Python\\Python310\\lib\\site-packages\\numpy\\linalg\\__init__.py',
   'PYMODULE'),
  ('numpy.linalg.linalg',
   'C:\\Users\\NickLempert\\AppData\\Local\\Programs\\Python\\Python310\\lib\\site-packages\\numpy\\linalg\\linalg.py',
   'PYMODULE'),
  ('numpy.lib',
   'C:\\Users\\NickLempert\\AppData\\Local\\Programs\\Python\\Python310\\lib\\site-packages\\numpy\\lib\\__init__.py',
   'PYMODULE'),
  ('numpy.lib._version',
   'C:\\Users\\NickLempert\\AppData\\Local\\Programs\\Python\\Python310\\lib\\site-packages\\numpy\\lib\\_version.py',
   'PYMODULE'),
  ('numpy.lib.arraypad',
   'C:\\Users\\NickLempert\\AppData\\Local\\Programs\\Python\\Python310\\lib\\site-packages\\numpy\\lib\\arraypad.py',
   'PYMODULE'),
  ('numpy.lib.arrayterator',
   'C:\\Users\\NickLempert\\AppData\\Local\\Programs\\Python\\Python310\\lib\\site-packages\\numpy\\lib\\arrayterator.py',
   'PYMODULE'),
  ('numpy.lib.npyio',
   'C:\\Users\\NickLempert\\AppData\\Local\\Programs\\Python\\Python310\\lib\\site-packages\\numpy\\lib\\npyio.py',
   'PYMODULE'),
  ('numpy.ma.mrecords',
   'C:\\Users\\NickLempert\\AppData\\Local\\Programs\\Python\\Python310\\lib\\site-packages\\numpy\\ma\\mrecords.py',
   'PYMODULE'),
  ('numpy.core.records',
   'C:\\Users\\NickLempert\\AppData\\Local\\Programs\\Python\\Python310\\lib\\site-packages\\numpy\\core\\records.py',
   'PYMODULE'),
  ('numpy.lib._iotools',
   'C:\\Users\\NickLempert\\AppData\\Local\\Programs\\Python\\Python310\\lib\\site-packages\\numpy\\lib\\_iotools.py',
   'PYMODULE'),
  ('numpy.lib._datasource',
   'C:\\Users\\NickLempert\\AppData\\Local\\Programs\\Python\\Python310\\lib\\site-packages\\numpy\\lib\\_datasource.py',
   'PYMODULE'),
  ('numpy.lib.format',
   'C:\\Users\\NickLempert\\AppData\\Local\\Programs\\Python\\Python310\\lib\\site-packages\\numpy\\lib\\format.py',
   'PYMODULE'),
  ('numpy.lib.arraysetops',
   'C:\\Users\\NickLempert\\AppData\\Local\\Programs\\Python\\Python310\\lib\\site-packages\\numpy\\lib\\arraysetops.py',
   'PYMODULE'),
  ('numpy.lib.utils',
   'C:\\Users\\NickLempert\\AppData\\Local\\Programs\\Python\\Python310\\lib\\site-packages\\numpy\\lib\\utils.py',
   'PYMODULE'),
  ('numpy.lib.polynomial',
   'C:\\Users\\NickLempert\\AppData\\Local\\Programs\\Python\\Python310\\lib\\site-packages\\numpy\\lib\\polynomial.py',
   'PYMODULE'),
  ('numpy.lib.ufunclike',
   'C:\\Users\\NickLempert\\AppData\\Local\\Programs\\Python\\Python310\\lib\\site-packages\\numpy\\lib\\ufunclike.py',
   'PYMODULE'),
  ('numpy.lib.shape_base',
   'C:\\Users\\NickLempert\\AppData\\Local\\Programs\\Python\\Python310\\lib\\site-packages\\numpy\\lib\\shape_base.py',
   'PYMODULE'),
  ('numpy.lib.nanfunctions',
   'C:\\Users\\NickLempert\\AppData\\Local\\Programs\\Python\\Python310\\lib\\site-packages\\numpy\\lib\\nanfunctions.py',
   'PYMODULE'),
  ('numpy.lib.type_check',
   'C:\\Users\\NickLempert\\AppData\\Local\\Programs\\Python\\Python310\\lib\\site-packages\\numpy\\lib\\type_check.py',
   'PYMODULE'),
  ('numpy.core.getlimits',
   'C:\\Users\\NickLempert\\AppData\\Local\\Programs\\Python\\Python310\\lib\\site-packages\\numpy\\core\\getlimits.py',
   'PYMODULE'),
  ('numpy.core._machar',
   'C:\\Users\\NickLempert\\AppData\\Local\\Programs\\Python\\Python310\\lib\\site-packages\\numpy\\core\\_machar.py',
   'PYMODULE'),
  ('numpy.lib.scimath',
   'C:\\Users\\NickLempert\\AppData\\Local\\Programs\\Python\\Python310\\lib\\site-packages\\numpy\\lib\\scimath.py',
   'PYMODULE'),
  ('numpy.lib.mixins',
   'C:\\Users\\NickLempert\\AppData\\Local\\Programs\\Python\\Python310\\lib\\site-packages\\numpy\\lib\\mixins.py',
   'PYMODULE'),
  ('numpy.compat',
   'C:\\Users\\NickLempert\\AppData\\Local\\Programs\\Python\\Python310\\lib\\site-packages\\numpy\\compat\\__init__.py',
   'PYMODULE'),
  ('numpy.compat.py3k',
   'C:\\Users\\NickLempert\\AppData\\Local\\Programs\\Python\\Python310\\lib\\site-packages\\numpy\\compat\\py3k.py',
   'PYMODULE'),
  ('numpy.compat._pep440',
   'C:\\Users\\NickLempert\\AppData\\Local\\Programs\\Python\\Python310\\lib\\site-packages\\numpy\\compat\\_pep440.py',
   'PYMODULE'),
  ('numpy.core',
   'C:\\Users\\NickLempert\\AppData\\Local\\Programs\\Python\\Python310\\lib\\site-packages\\numpy\\core\\__init__.py',
   'PYMODULE'),
  ('numpy.core._add_newdocs_scalars',
   'C:\\Users\\NickLempert\\AppData\\Local\\Programs\\Python\\Python310\\lib\\site-packages\\numpy\\core\\_add_newdocs_scalars.py',
   'PYMODULE'),
  ('numpy.core._add_newdocs',
   'C:\\Users\\NickLempert\\AppData\\Local\\Programs\\Python\\Python310\\lib\\site-packages\\numpy\\core\\_add_newdocs.py',
   'PYMODULE'),
  ('numpy.core.einsumfunc',
   'C:\\Users\\NickLempert\\AppData\\Local\\Programs\\Python\\Python310\\lib\\site-packages\\numpy\\core\\einsumfunc.py',
   'PYMODULE'),
  ('numpy.core.memmap',
   'C:\\Users\\NickLempert\\AppData\\Local\\Programs\\Python\\Python310\\lib\\site-packages\\numpy\\core\\memmap.py',
   'PYMODULE'),
  ('numpy.core.defchararray',
   'C:\\Users\\NickLempert\\AppData\\Local\\Programs\\Python\\Python310\\lib\\site-packages\\numpy\\core\\defchararray.py',
   'PYMODULE'),
  ('numpy._distributor_init',
   'C:\\Users\\NickLempert\\AppData\\Local\\Programs\\Python\\Python310\\lib\\site-packages\\numpy\\_distributor_init.py',
   'PYMODULE'),
  ('numpy.__config__',
   'C:\\Users\\NickLempert\\AppData\\Local\\Programs\\Python\\Python310\\lib\\site-packages\\numpy\\__config__.py',
   'PYMODULE'),
  ('numpy.array_api',
   'C:\\Users\\NickLempert\\AppData\\Local\\Programs\\Python\\Python310\\lib\\site-packages\\numpy\\array_api\\__init__.py',
   'PYMODULE'),
  ('numpy.array_api._utility_functions',
   'C:\\Users\\NickLempert\\AppData\\Local\\Programs\\Python\\Python310\\lib\\site-packages\\numpy\\array_api\\_utility_functions.py',
   'PYMODULE'),
  ('numpy.array_api._array_object',
   'C:\\Users\\NickLempert\\AppData\\Local\\Programs\\Python\\Python310\\lib\\site-packages\\numpy\\array_api\\_array_object.py',
   'PYMODULE'),
  ('numpy.typing',
   'C:\\Users\\NickLempert\\AppData\\Local\\Programs\\Python\\Python310\\lib\\site-packages\\numpy\\typing\\__init__.py',
   'PYMODULE'),
  ('numpy._typing._add_docstring',
   'C:\\Users\\NickLempert\\AppData\\Local\\Programs\\Python\\Python310\\lib\\site-packages\\numpy\\_typing\\_add_docstring.py',
   'PYMODULE'),
  ('numpy._typing._generic_alias',
   'C:\\Users\\NickLempert\\AppData\\Local\\Programs\\Python\\Python310\\lib\\site-packages\\numpy\\_typing\\_generic_alias.py',
   'PYMODULE'),
  ('numpy._typing',
   'C:\\Users\\NickLempert\\AppData\\Local\\Programs\\Python\\Python310\\lib\\site-packages\\numpy\\_typing\\__init__.py',
   'PYMODULE'),
  ('numpy._typing._array_like',
   'C:\\Users\\NickLempert\\AppData\\Local\\Programs\\Python\\Python310\\lib\\site-packages\\numpy\\_typing\\_array_like.py',
   'PYMODULE'),
  ('numpy._typing._dtype_like',
   'C:\\Users\\NickLempert\\AppData\\Local\\Programs\\Python\\Python310\\lib\\site-packages\\numpy\\_typing\\_dtype_like.py',
   'PYMODULE'),
  ('numpy._typing._shape',
   'C:\\Users\\NickLempert\\AppData\\Local\\Programs\\Python\\Python310\\lib\\site-packages\\numpy\\_typing\\_shape.py',
   'PYMODULE'),
  ('numpy._typing._scalars',
   'C:\\Users\\NickLempert\\AppData\\Local\\Programs\\Python\\Python310\\lib\\site-packages\\numpy\\_typing\\_scalars.py',
   'PYMODULE'),
  ('numpy._typing._char_codes',
   'C:\\Users\\NickLempert\\AppData\\Local\\Programs\\Python\\Python310\\lib\\site-packages\\numpy\\_typing\\_char_codes.py',
   'PYMODULE'),
  ('numpy._typing._nbit',
   'C:\\Users\\NickLempert\\AppData\\Local\\Programs\\Python\\Python310\\lib\\site-packages\\numpy\\_typing\\_nbit.py',
   'PYMODULE'),
  ('numpy._typing._nested_sequence',
   'C:\\Users\\NickLempert\\AppData\\Local\\Programs\\Python\\Python310\\lib\\site-packages\\numpy\\_typing\\_nested_sequence.py',
   'PYMODULE'),
  ('numpy.array_api._typing',
   'C:\\Users\\NickLempert\\AppData\\Local\\Programs\\Python\\Python310\\lib\\site-packages\\numpy\\array_api\\_typing.py',
   'PYMODULE'),
  ('numpy.array_api._statistical_functions',
   'C:\\Users\\NickLempert\\AppData\\Local\\Programs\\Python\\Python310\\lib\\site-packages\\numpy\\array_api\\_statistical_functions.py',
   'PYMODULE'),
  ('numpy.array_api._sorting_functions',
   'C:\\Users\\NickLempert\\AppData\\Local\\Programs\\Python\\Python310\\lib\\site-packages\\numpy\\array_api\\_sorting_functions.py',
   'PYMODULE'),
  ('numpy.array_api._set_functions',
   'C:\\Users\\NickLempert\\AppData\\Local\\Programs\\Python\\Python310\\lib\\site-packages\\numpy\\array_api\\_set_functions.py',
   'PYMODULE'),
  ('numpy.array_api._searching_functions',
   'C:\\Users\\NickLempert\\AppData\\Local\\Programs\\Python\\Python310\\lib\\site-packages\\numpy\\array_api\\_searching_functions.py',
   'PYMODULE'),
  ('numpy.array_api._manipulation_functions',
   'C:\\Users\\NickLempert\\AppData\\Local\\Programs\\Python\\Python310\\lib\\site-packages\\numpy\\array_api\\_manipulation_functions.py',
   'PYMODULE'),
  ('numpy.array_api.linalg',
   'C:\\Users\\NickLempert\\AppData\\Local\\Programs\\Python\\Python310\\lib\\site-packages\\numpy\\array_api\\linalg.py',
   'PYMODULE'),
  ('numpy.array_api._elementwise_functions',
   'C:\\Users\\NickLempert\\AppData\\Local\\Programs\\Python\\Python310\\lib\\site-packages\\numpy\\array_api\\_elementwise_functions.py',
   'PYMODULE'),
  ('numpy.array_api._dtypes',
   'C:\\Users\\NickLempert\\AppData\\Local\\Programs\\Python\\Python310\\lib\\site-packages\\numpy\\array_api\\_dtypes.py',
   'PYMODULE'),
  ('numpy.array_api._data_type_functions',
   'C:\\Users\\NickLempert\\AppData\\Local\\Programs\\Python\\Python310\\lib\\site-packages\\numpy\\array_api\\_data_type_functions.py',
   'PYMODULE'),
  ('numpy.array_api._creation_functions',
   'C:\\Users\\NickLempert\\AppData\\Local\\Programs\\Python\\Python310\\lib\\site-packages\\numpy\\array_api\\_creation_functions.py',
   'PYMODULE'),
  ('numpy.array_api._constants',
   'C:\\Users\\NickLempert\\AppData\\Local\\Programs\\Python\\Python310\\lib\\site-packages\\numpy\\array_api\\_constants.py',
   'PYMODULE'),
  ('numpy._globals',
   'C:\\Users\\NickLempert\\AppData\\Local\\Programs\\Python\\Python310\\lib\\site-packages\\numpy\\_globals.py',
   'PYMODULE'),
  ('pygame.fastevent',
   'C:\\Users\\NickLempert\\AppData\\Local\\Programs\\Python\\Python310\\lib\\site-packages\\pygame\\fastevent.py',
   'PYMODULE'),
  ('pygame.sndarray',
   'C:\\Users\\NickLempert\\AppData\\Local\\Programs\\Python\\Python310\\lib\\site-packages\\pygame\\sndarray.py',
   'PYMODULE'),
  ('pygame.surfarray',
   'C:\\Users\\NickLempert\\AppData\\Local\\Programs\\Python\\Python310\\lib\\site-packages\\pygame\\surfarray.py',
   'PYMODULE'),
  ('pygame.sysfont',
   'C:\\Users\\NickLempert\\AppData\\Local\\Programs\\Python\\Python310\\lib\\site-packages\\pygame\\sysfont.py',
   'PYMODULE'),
  ('pygame.ftfont',
   'C:\\Users\\NickLempert\\AppData\\Local\\Programs\\Python\\Python310\\lib\\site-packages\\pygame\\ftfont.py',
   'PYMODULE'),
  ('pygame.threads',
   'C:\\Users\\NickLempert\\AppData\\Local\\Programs\\Python\\Python310\\lib\\site-packages\\pygame\\threads\\__init__.py',
   'PYMODULE'),
  ('pygame.sprite',
   'C:\\Users\\NickLempert\\AppData\\Local\\Programs\\Python\\Python310\\lib\\site-packages\\pygame\\sprite.py',
   'PYMODULE'),
  ('pygame.cursors',
   'C:\\Users\\NickLempert\\AppData\\Local\\Programs\\Python\\Python310\\lib\\site-packages\\pygame\\cursors.py',
   'PYMODULE'),
  ('pygame.version',
   'C:\\Users\\NickLempert\\AppData\\Local\\Programs\\Python\\Python310\\lib\\site-packages\\pygame\\version.py',
   'PYMODULE')])
